; ModuleID = '/home/user/MPS/riscv_kernel/riscv_kernel_kernels/vivado_rtl_kernel/riscv_template_ex/imports/hls/prj/sol/.autopilot/db/a.g.ld.5.gdce.bc'
source_filename = "llvm-link"
target datalayout = "e-m:e-i64:64-i128:128-i256:256-i512:512-i1024:1024-i2048:2048-i4096:4096-n8:16:32:64-S128-v16:16-v24:32-v32:32-v48:64-v96:128-v192:256-v256:256-v512:512-v1024:1024"
target triple = "fpga64-xilinx-none"

; Function Attrs: argmemonly nounwind
declare void @llvm.memcpy.p0i8.p0i8.i64(i8* nocapture writeonly, i8* nocapture readonly, i64, i1) #0

; Function Attrs: argmemonly noinline
define void @apatb_riscv_template_ir(i8 %gpn_reset, i32 %gpn_config, i32* %global_memory_ptr, i32* %external_memory_ptr) local_unnamed_addr #1 {
entry:
  %global_memory_ptr_copy = alloca i32, align 512
  %external_memory_ptr_copy = alloca i32, align 512
  call fastcc void @copy_in(i32* %global_memory_ptr, i32* nonnull align 512 %global_memory_ptr_copy, i32* %external_memory_ptr, i32* nonnull align 512 %external_memory_ptr_copy)
  call void @apatb_riscv_template_hw(i8 %gpn_reset, i32 %gpn_config, i32* %global_memory_ptr_copy, i32* %external_memory_ptr_copy)
  call fastcc void @copy_out(i32* %global_memory_ptr, i32* nonnull align 512 %global_memory_ptr_copy, i32* %external_memory_ptr, i32* nonnull align 512 %external_memory_ptr_copy)
  ret void
}

; Function Attrs: argmemonly noinline
define internal fastcc void @copy_in(i32* readonly, i32* noalias align 512, i32* readonly, i32* noalias align 512) unnamed_addr #2 {
entry:
  call fastcc void @onebyonecpy_hls.p0i32(i32* align 512 %1, i32* %0)
  call fastcc void @onebyonecpy_hls.p0i32(i32* align 512 %3, i32* %2)
  ret void
}

; Function Attrs: argmemonly noinline
define internal fastcc void @onebyonecpy_hls.p0i32(i32* noalias align 512, i32* noalias readonly) unnamed_addr #3 {
entry:
  %2 = icmp eq i32* %0, null
  %3 = icmp eq i32* %1, null
  %4 = or i1 %2, %3
  br i1 %4, label %ret, label %copy

copy:                                             ; preds = %entry
  %5 = bitcast i32* %0 to i8*
  %6 = bitcast i32* %1 to i8*
  call void @llvm.memcpy.p0i8.p0i8.i64(i8* align 1 %5, i8* align 1 %6, i64 4, i1 false)
  br label %ret

ret:                                              ; preds = %copy, %entry
  ret void
}

; Function Attrs: argmemonly noinline
define internal fastcc void @copy_out(i32*, i32* noalias readonly align 512, i32*, i32* noalias readonly align 512) unnamed_addr #4 {
entry:
  call fastcc void @onebyonecpy_hls.p0i32(i32* %0, i32* align 512 %1)
  call fastcc void @onebyonecpy_hls.p0i32(i32* %2, i32* align 512 %3)
  ret void
}

declare void @apatb_riscv_template_hw(i8, i32, i32*, i32*)

define void @riscv_template_hw_stub_wrapper(i8, i32, i32*, i32*) #5 {
entry:
  call void @copy_out(i32* null, i32* %2, i32* null, i32* %3)
  call void @riscv_template_hw_stub(i8 %0, i32 %1, i32* %2, i32* %3)
  call void @copy_in(i32* null, i32* %2, i32* null, i32* %3)
  ret void
}

declare void @riscv_template_hw_stub(i8, i32, i32*, i32*)

attributes #0 = { argmemonly nounwind }
attributes #1 = { argmemonly noinline "fpga.wrapper.func"="wrapper" }
attributes #2 = { argmemonly noinline "fpga.wrapper.func"="copyin" }
attributes #3 = { argmemonly noinline "fpga.wrapper.func"="onebyonecpy_hls" }
attributes #4 = { argmemonly noinline "fpga.wrapper.func"="copyout" }
attributes #5 = { "fpga.wrapper.func"="stub" }

!llvm.dbg.cu = !{}
!llvm.ident = !{!0, !0, !0, !0, !0, !0, !0, !0, !0, !0, !0, !0, !0, !0, !0, !0, !0, !0, !0, !0, !0, !0, !0, !0, !0, !0, !0, !0, !0, !0, !0, !0, !0, !0, !0, !0, !0, !0, !0, !0, !0, !0, !0, !0, !0, !0, !0, !0, !0, !0, !0, !0, !0, !0, !0, !0, !0, !0, !0, !0, !0, !0, !0, !0, !0, !0, !0, !0, !0, !0, !0, !0, !0, !0, !0, !0, !0, !0, !0, !0, !0, !0, !0, !0, !0, !0, !0, !0, !0, !0, !0, !0, !0, !0, !0, !0, !0, !0, !0, !0, !0, !0, !0, !0, !0, !0, !0, !0, !0, !0, !0, !0, !0, !0, !0, !0, !0, !0, !0, !0, !0, !0, !0, !0, !0, !0, !0, !0, !0, !0, !0, !0, !0, !0, !0, !0, !0, !0, !0, !0, !0, !0, !0, !0, !0, !0, !0, !0, !0, !0, !0, !0, !0, !0, !0, !0, !0, !0, !0, !0, !0, !0, !0, !0, !0, !0, !0, !0, !0, !0, !0, !0, !0, !0, !0, !0, !0, !0, !0, !0, !0, !0, !0, !0, !0, !0, !0, !0, !0, !0, !0, !0, !0, !0, !0, !0, !0, !0, !0, !0, !0, !0, !0, !0, !0, !0, !0, !0, !0, !0, !0, !0, !0, !0, !0, !0, !0, !0, !0, !0, !0, !0, !0, !0, !0, !0, !0, !0, !0, !0, !0, !0, !0, !0, !0, !0, !0, !0, !0, !0, !0, !0, !0, !0, !0, !0, !0, !0, !0, !0, !0, !0, !0, !0, !0, !0, !0, !0, !0, !0, !0, !0, !0, !0, !0, !0, !0, !0, !0, !0, !0, !0, !0, !0, !0, !0, !0, !0, !0, !0, !0, !0, !0, !0, !0, !0, !0, !0, !0, !0, !0, !0, !0, !0, !0, !0, !0, !0, !0, !0, !0, !0, !0, !0, !0, !0, !0, !0, !0, !0, !0, !0, !0, !0, !0, !0, !0, !0, !0, !0, !0, !0, !0, !0, !0, !0, !0, !0, !0, !0, !0, !0, !0, !0, !0, !0, !0, !0, !0, !0, !0, !0, !0, !0, !0, !0, !0, !0, !0, !0, !0, !0, !0, !0, !0, !0, !0, !0, !0, !0, !0, !0, !0, !0, !0, !0, !0, !0, !0, !0, !0, !0, !0, !0, !0, !0, !0, !0, !0, !0, !0, !0, !0, !0, !0, !0, !0, !0, !0, !0, !0, !0, !0, !0, !0, !0, !0, !0, !0, !0, !0, !0, !0, !0, !0, !0, !0, !0, !0, !0, !0, !0, !0, !0, !0, !0, !0, !0, !0, !0, !0, !0, !0, !0, !0, !0, !0, !0, !0, !0, !0, !0, !0, !0, !0, !0, !0, !0, !0, !0, !0, !0, !0, !0, !0, !0, !0, !0, !0, !0, !0, !0, !0, !0, !0, !0, !0, !0, !0, !0, !0, !0, !0, !0, !0, !0, !0, !0, !0, !0, !0, !0, !0, !0, !0, !0, !0, !0, !0, !0, !0, !0, !0, !0, !0, !0, !0, !0, !0, !0, !0, !0, !0, !0, !0, !0, !0, !0, !0, !0, !0, !0, !0, !0, !0, !0, !0, !0, !0, !0, !0, !0, !0, !0, !0, !0, !0, !0, !0, !0, !0, !0, !0, !0, !0, !0, !0, !0, !0, !0, !0, !0, !0, !0, !0, !0, !0, !0, !0, !0, !0, !0, !0, !0, !0, !0, !0, !0, !0, !0, !0, !0, !0, !0, !0, !0, !0, !0, !0, !0, !0, !0, !0, !0, !0, !0, !0, !0, !0, !0, !0, !0, !0, !0, !0, !0, !0, !0, !0, !0, !0, !0, !0, !0, !0}
!llvm.module.flags = !{!1, !2, !3}
!blackbox_cfg = !{!4}

!0 = !{!"clang version 7.0.0 "}
!1 = !{i32 2, !"Dwarf Version", i32 4}
!2 = !{i32 2, !"Debug Info Version", i32 3}
!3 = !{i32 1, !"wchar_size", i32 4}
!4 = !{}
