{
 "session": {
  "name": "Hardware",
  "uuid": "718fd408-1d17-4b41-a64b-9a5e52cae01d",
  "description": "Vitis IDE session Hardware",
  "timestamp": "0",
  "report_file": {
   "scheme": "FILE",
   "host": "",
   "port": 0,
   "path": "/home/user/MPS/riscv_kernel/riscv_kernel_system_hw_link/Hardware/guidance.html",
   "query": "",
   "fragment": "",
   "media_type": "",
   "encoding": "",
   "data": ""
  },
  "proto_file": {
   "scheme": "FILE",
   "host": "",
   "port": 0,
   "path": "/home/user/MPS/riscv_kernel/riscv_kernel_system_hw_link/Hardware/guidance.pb",
   "query": "",
   "fragment": "",
   "media_type": "",
   "encoding": "",
   "data": ""
  },
  "build_target": "",
  "config_files": []
 },
 "violation_count": 0,
 "waived_count": 0,
 "affirmation_count": 0
}

