vhdl xil_defaultlib  \
"../../../../riscv_template_ex.gen/sources_1/bd/gpn_bundle_block_v001/ip/gpn_bundle_block_axi_gpio_0_0/sim/gpn_bundle_block_axi_gpio_0_0.vhd" \
"../../../../riscv_template_ex.gen/sources_1/bd/gpn_bundle_block_v001/ip/gpn_bundle_block_axi_gpio_1_0/sim/gpn_bundle_block_axi_gpio_1_0.vhd" \
"../../../../riscv_template_ex.gen/sources_1/bd/gpn_bundle_block_v001/ip/gpn_bundle_block_proc_sys_reset_0_0/sim/gpn_bundle_block_proc_sys_reset_0_0.vhd" \
"../../../../riscv_template_ex.gen/sources_1/bd/gpn_bundle_block_v001/ip/gpn_bundle_block_axi_gpio_2_0/sim/gpn_bundle_block_axi_gpio_2_0.vhd" \
"../../../../riscv_template_ex.gen/sources_1/bd/gpn_bundle_block_v001/ip/gpn_bundle_block_axi_gpio_2_1/sim/gpn_bundle_block_axi_gpio_2_1.vhd" \
"../../../../riscv_template_ex.gen/sources_1/bd/gpn_bundle_block_v001/ip/gpn_bundle_block_axi_gpio_2_2/sim/gpn_bundle_block_axi_gpio_2_2.vhd" \

nosort
