
****** Vitis HLS - High-Level Synthesis from C, C++ and OpenCL v2020.2 (64-bit)
  **** SW Build 3064766 on Wed Nov 18 09:12:47 MST 2020
  **** IP Build 3064653 on Wed Nov 18 14:17:31 MST 2020
    ** Copyright 1986-2020 Xilinx, Inc. All Rights Reserved.

source /data/Xilinx/Vitis_HLS/2020.2/scripts/vitis_hls/hls.tcl -notrace
INFO: [HLS 200-10] Running '/data/Xilinx/Vitis_HLS/2020.2/bin/unwrapped/lnx64.o/vitis_hls'
INFO: [HLS 200-10] For user 'user' on host 'dl580.iu6.bmstu.ru' (Linux_x86_64 version 4.15.0-180-generic) on Sun Aug 28 17:36:35 MSK 2022
INFO: [HLS 200-10] On os Ubuntu 18.04.6 LTS
INFO: [HLS 200-10] In directory '/home/user/MPS/riscv_kernel/riscv_kernel_kernels/vivado_rtl_kernel/riscv_template_ex/imports/hls'
Sourcing Tcl script './run_hls.tcl'
INFO: [HLS 200-1510] Running: open_project prj 
INFO: [HLS 200-10] Creating and opening project '/home/user/MPS/riscv_kernel/riscv_kernel_kernels/vivado_rtl_kernel/riscv_template_ex/imports/hls/prj'.
INFO: [HLS 200-1510] Running: open_solution sol -flow_target vitis 
INFO: [HLS 200-10] Creating and opening solution '/home/user/MPS/riscv_kernel/riscv_kernel_kernels/vivado_rtl_kernel/riscv_template_ex/imports/hls/prj/sol'.
INFO: [HLS 200-1505] Using flow_target 'vitis'
Resolution: For help on HLS 200-1505 see www.xilinx.com/cgi-bin/docs/rdoc?v=2020.2;t=hls+guidance;d=200-1505.html
INFO: [HLS 200-435] Setting 'open_solution -flow_target vitis' configuration: config_interface -m_axi_latency=64
INFO: [HLS 200-435] Setting 'open_solution -flow_target vitis' configuration: config_interface -m_axi_alignment_byte_size=64
INFO: [HLS 200-435] Setting 'open_solution -flow_target vitis' configuration: config_interface -m_axi_max_widen_bitwidth=512
INFO: [HLS 200-435] Setting 'open_solution -flow_target vitis' configuration: config_interface -m_axi_offset=slave
INFO: [HLS 200-435] Setting 'open_solution -flow_target vitis' configuration: config_rtl -register_reset_num=3
INFO: [HLS 200-1510] Running: set_part xcu200-fsgd2104-2-e 
INFO: [HLS 200-10] Setting target device to 'xcu200-fsgd2104-2-e'
INFO: [HLS 200-1510] Running: add_files ../riscv_template_cmodel.cpp 
INFO: [HLS 200-10] Adding design file '../riscv_template_cmodel.cpp' to the project
INFO: [HLS 200-1510] Running: set_top riscv_template 
INFO: [HLS 200-1510] Running: csynth_design 
INFO: [HLS 200-111] Finished File checks and directory preparation: CPU user time: 0.01 seconds. CPU system time: 0.01 seconds. Elapsed time: 0.01 seconds; current allocated memory: 205.654 MB.
INFO: [HLS 200-10] Analyzing design file '../riscv_template_cmodel.cpp' ... 
INFO: [HLS 200-111] Finished Source Code Analysis and Preprocessing: CPU user time: 10.69 seconds. CPU system time: 0.87 seconds. Elapsed time: 13.59 seconds; current allocated memory: 207.333 MB.
INFO: [HLS 200-777] Using interface defaults for 'Vitis' flow target.
INFO: [HLS 214-115] Multiple burst reads of length 256 and bit width 512 has been inferred on port 'global_memory' (../riscv_template_cmodel.cpp:54:5)
INFO: [HLS 214-115] Multiple burst writes of length 256 and bit width 512 has been inferred on port 'global_memory' (../riscv_template_cmodel.cpp:62:5)
INFO: [HLS 214-115] Multiple burst reads of length 256 and bit width 512 has been inferred on port 'external_memory' (../riscv_template_cmodel.cpp:75:5)
INFO: [HLS 214-115] Multiple burst writes of length 256 and bit width 512 has been inferred on port 'external_memory' (../riscv_template_cmodel.cpp:83:5)
INFO: [HLS 200-111] Finished Compiling Optimization and Transform: CPU user time: 9.61 seconds. CPU system time: 1.24 seconds. Elapsed time: 11.96 seconds; current allocated memory: 208.577 MB.
INFO: [HLS 200-111] Finished Checking Pragmas: CPU user time: 0 seconds. CPU system time: 0 seconds. Elapsed time: 0 seconds; current allocated memory: 208.579 MB.
INFO: [HLS 200-10] Starting code transformations ...
INFO: [HLS 200-111] Finished Standard Transforms: CPU user time: 0.82 seconds. CPU system time: 0.02 seconds. Elapsed time: 0.85 seconds; current allocated memory: 210.976 MB.
INFO: [HLS 200-10] Checking synthesizability ...
INFO: [HLS 200-111] Finished Checking Synthesizability: CPU user time: 0.78 seconds. CPU system time: 0.01 seconds. Elapsed time: 0.79 seconds; current allocated memory: 210.218 MB.
INFO: [XFORM 203-510] Pipelining loop 'Loop-2' in function 'riscv_template' automatically.
INFO: [XFORM 203-510] Pipelining loop 'VITIS_LOOP_57_1' (../riscv_template_cmodel.cpp:57) in function 'riscv_template' automatically.
INFO: [XFORM 203-510] Pipelining loop 'Loop-4' in function 'riscv_template' automatically.
INFO: [XFORM 203-510] Pipelining loop 'Loop-5' in function 'riscv_template' automatically.
INFO: [XFORM 203-510] Pipelining loop 'VITIS_LOOP_78_2' (../riscv_template_cmodel.cpp:78) in function 'riscv_template' automatically.
INFO: [XFORM 203-510] Pipelining loop 'Loop-7' in function 'riscv_template' automatically.
INFO: [HLS 200-111] Finished Loop, function and other optimizations: CPU user time: 1.18 seconds. CPU system time: 0.02 seconds. Elapsed time: 1.2 seconds; current allocated memory: 230.848 MB.
INFO: [HLS 200-472] Inferring partial write operation for 'global_memory_input_buffer' 
INFO: [HLS 200-472] Inferring partial write operation for 'global_memory_output_buffer' (../riscv_template_cmodel.cpp:58:38)
INFO: [HLS 200-472] Inferring partial write operation for 'external_memory_input_buffer' 
INFO: [HLS 200-472] Inferring partial write operation for 'external_memory_output_buffer' (../riscv_template_cmodel.cpp:79:40)
INFO: [HLS 200-111] Finished Architecture Synthesis: CPU user time: 3.19 seconds. CPU system time: 0.01 seconds. Elapsed time: 3.21 seconds; current allocated memory: 224.664 MB.
INFO: [HLS 200-10] Starting hardware synthesis ...
INFO: [HLS 200-10] Synthesizing 'riscv_template' ...
INFO: [SYN 201-201] Setting up clock 'default' with a period of 10ns.
INFO: [HLS 200-10] ----------------------------------------------------------------
INFO: [HLS 200-42] -- Implementing module 'riscv_template' 
INFO: [HLS 200-10] ----------------------------------------------------------------
INFO: [SCHED 204-11] Starting scheduling ...
INFO: [SCHED 204-61] Pipelining loop 'Loop 1'.
INFO: [HLS 200-1470] Pipelining result : Target II = 1, Final II = 1, Depth = 3, loop 'Loop 1'
INFO: [SCHED 204-61] Pipelining loop 'VITIS_LOOP_57_1'.
INFO: [HLS 200-1470] Pipelining result : Target II = 1, Final II = 1, Depth = 2, loop 'VITIS_LOOP_57_1'
INFO: [SCHED 204-61] Pipelining loop 'Loop 3'.
INFO: [HLS 200-1470] Pipelining result : Target II = 1, Final II = 1, Depth = 3, loop 'Loop 3'
INFO: [SCHED 204-61] Pipelining loop 'Loop 4'.
INFO: [HLS 200-1470] Pipelining result : Target II = 1, Final II = 1, Depth = 3, loop 'Loop 4'
INFO: [SCHED 204-61] Pipelining loop 'VITIS_LOOP_78_2'.
INFO: [HLS 200-1470] Pipelining result : Target II = 1, Final II = 1, Depth = 2, loop 'VITIS_LOOP_78_2'
INFO: [SCHED 204-61] Pipelining loop 'Loop 6'.
INFO: [HLS 200-1470] Pipelining result : Target II = 1, Final II = 1, Depth = 3, loop 'Loop 6'
INFO: [SCHED 204-11] Finished scheduling.
INFO: [HLS 200-111] Finished Scheduling: CPU user time: 1.25 seconds. CPU system time: 0.01 seconds. Elapsed time: 1.26 seconds; current allocated memory: 225.772 MB.
INFO: [BIND 205-100] Starting micro-architecture generation ...
INFO: [BIND 205-101] Performing variable lifetime analysis.
INFO: [BIND 205-101] Exploring resource sharing.
INFO: [BIND 205-101] Binding ...
INFO: [BIND 205-100] Finished micro-architecture generation.
INFO: [HLS 200-111] Finished Binding: CPU user time: 3 seconds. CPU system time: 0.04 seconds. Elapsed time: 3.04 seconds; current allocated memory: 227.142 MB.
INFO: [HLS 200-10] ----------------------------------------------------------------
INFO: [HLS 200-10] -- Generating RTL for module 'riscv_template' 
INFO: [HLS 200-10] ----------------------------------------------------------------
WARNING: [RTGEN 206-101] Design contains AXI ports. Reset is fixed to synchronous and active low.
INFO: [RTGEN 206-500] Setting interface mode on port 'riscv_template/global_memory' to 'm_axi'.
INFO: [RTGEN 206-500] Setting interface mode on port 'riscv_template/external_memory' to 'm_axi'.
INFO: [RTGEN 206-500] Setting interface mode on port 'riscv_template/gpn_reset' to 's_axilite & ap_none'.
INFO: [RTGEN 206-500] Setting interface mode on port 'riscv_template/gpn_config' to 's_axilite & ap_none'.
INFO: [RTGEN 206-500] Setting interface mode on port 'riscv_template/global_memory_ptr' to 's_axilite & ap_none'.
INFO: [RTGEN 206-500] Setting interface mode on port 'riscv_template/external_memory_ptr' to 's_axilite & ap_none'.
INFO: [RTGEN 206-500] Setting interface mode on function 'riscv_template' to 's_axilite & ap_ctrl_hs'.
INFO: [RTGEN 206-100] Bundling port 'gpn_reset', 'gpn_config', 'global_memory_ptr', 'external_memory_ptr' and 'return' to AXI-Lite port control.
INFO: [RTGEN 206-100] Finished creating RTL model for 'riscv_template'.
INFO: [HLS 200-111] Finished Creating RTL model: CPU user time: 1.14 seconds. CPU system time: 0.05 seconds. Elapsed time: 1.18 seconds; current allocated memory: 230.642 MB.
INFO: [RTMG 210-278] Implementing memory 'riscv_template_global_memory_input_buffer_ram (RAM)' using auto RAMs.
INFO: [HLS 200-111] Finished Generating all RTL models: CPU user time: 5.5 seconds. CPU system time: 0.22 seconds. Elapsed time: 5.82 seconds; current allocated memory: 242.277 MB.
INFO: [VHDL 208-304] Generating VHDL RTL for riscv_template.
INFO: [VLOG 209-307] Generating Verilog RTL for riscv_template.
INFO: [HLS 200-1603] Design has MAXI bursts, see Vitis HLS GUI synthesis summary report for detailed information.
INFO: [HLS 200-790] **** Loop Constraint Status: All loop constraints were satisfied.
INFO: [HLS 200-789] **** Estimated Fmax: 136.99 MHz
INFO: [HLS 200-111] Finished Command csynth_design CPU user time: 37.73 seconds. CPU system time: 2.51 seconds. Elapsed time: 43.49 seconds; current allocated memory: 243.079 MB.
INFO: [HLS 200-112] Total CPU user time: 46.1 seconds. Total CPU system time: 4.93 seconds. Total elapsed time: 52.6 seconds; peak allocated memory: 242.277 MB.
INFO: [Common 17-206] Exiting vitis_hls at Sun Aug 28 17:37:26 2022...
