
*** Running vivado
    with args -log gpn_bundle_block_axi_gpio_2_1.vds -m64 -product Vivado -mode batch -messageDb vivado.pb -notrace -source gpn_bundle_block_axi_gpio_2_1.tcl


****** Vivado v2020.2 (64-bit)
  **** SW Build 3064766 on Wed Nov 18 09:12:47 MST 2020
  **** IP Build 3064653 on Wed Nov 18 14:17:31 MST 2020
    ** Copyright 1986-2020 Xilinx, Inc. All Rights Reserved.

source gpn_bundle_block_axi_gpio_2_1.tcl -notrace
create_project: Time (s): cpu = 00:00:09 ; elapsed = 00:00:10 . Memory (MB): peak = 2400.633 ; gain = 2.016 ; free physical = 453551 ; free virtual = 489109
INFO: [IP_Flow 19-234] Refreshing IP repositories
WARNING: [IP_Flow 19-1694] Ignoring duplicate Bus Definition IP file 'user.org:interface:local_memory_interface:1.0' found within IP repository '/home/user/MPS/ip_repo'.
File in use: /home/user/MPS/ip_repo/local_rom_IP/local_memory_interface.xml
File ignored: /home/user/MPS/ip_repo/taiga_wrapper_IP/local_memory_interface.xml
WARNING: [IP_Flow 19-1694] Ignoring duplicate Bus Abstraction IP file 'user.org:interface:local_memory_interface_rtl:1.0' found within IP repository '/home/user/MPS/ip_repo'.
File in use: /home/user/MPS/ip_repo/local_rom_IP/local_memory_interface_rtl.xml
File ignored: /home/user/MPS/ip_repo/taiga_wrapper_IP/local_memory_interface_rtl.xml
WARNING: [IP_Flow 19-1694] Ignoring duplicate Bus Definition IP file 'user.org:interface:local_memory_interface:1.0' found within IP repository '/home/user/MPS/ip_repo'.
File in use: /home/user/MPS/ip_repo/local_rom_IP/local_memory_interface.xml
File ignored: /home/user/MPS/ip_repo/local_memory_IP/local_memory_interface.xml
WARNING: [IP_Flow 19-1694] Ignoring duplicate Bus Abstraction IP file 'user.org:interface:local_memory_interface_rtl:1.0' found within IP repository '/home/user/MPS/ip_repo'.
File in use: /home/user/MPS/ip_repo/local_rom_IP/local_memory_interface_rtl.xml
File ignored: /home/user/MPS/ip_repo/local_memory_IP/local_memory_interface_rtl.xml
INFO: [IP_Flow 19-1700] Loaded user IP repository '/home/user/MPS/ip_repo'.
INFO: [IP_Flow 19-2313] Loaded Vivado IP repository '/data/Xilinx/Vivado/2020.2/data/ip'.
update_ip_catalog: Time (s): cpu = 00:00:04 ; elapsed = 00:00:09 . Memory (MB): peak = 2400.633 ; gain = 0.000 ; free physical = 453482 ; free virtual = 489040
Command: synth_design -top gpn_bundle_block_axi_gpio_2_1 -part xcu200-fsgd2104-2-e -mode out_of_context
Starting synth_design
Attempting to get a license for feature 'Synthesis' and/or device 'xcu200'
INFO: [Common 17-349] Got license for feature 'Synthesis' and/or device 'xcu200'
INFO: [Device 21-403] Loading part xcu200-fsgd2104-2-e
INFO: [Synth 8-7079] Multithreading enabled for synth_design using a maximum of 4 processes.
INFO: [Synth 8-7078] Launching helper process for spawning children vivado processes
INFO: [Synth 8-7075] Helper process launched with PID 29521
---------------------------------------------------------------------------------
Starting RTL Elaboration : Time (s): cpu = 00:00:08 ; elapsed = 00:00:11 . Memory (MB): peak = 2980.227 ; gain = 214.707 ; free physical = 437358 ; free virtual = 473487
---------------------------------------------------------------------------------
INFO: [Synth 8-638] synthesizing module 'gpn_bundle_block_axi_gpio_2_1' [/home/user/MPS/riscv_kernel/riscv_kernel_kernels/vivado_rtl_kernel/riscv_template_ex/riscv_template_ex.gen/sources_1/bd/gpn_bundle_block_v001/ip/gpn_bundle_block_axi_gpio_2_1/synth/gpn_bundle_block_axi_gpio_2_1.vhd:84]
	Parameter C_FAMILY bound to: virtexuplus - type: string 
	Parameter C_S_AXI_ADDR_WIDTH bound to: 9 - type: integer 
	Parameter C_S_AXI_DATA_WIDTH bound to: 32 - type: integer 
	Parameter C_GPIO_WIDTH bound to: 32 - type: integer 
	Parameter C_GPIO2_WIDTH bound to: 32 - type: integer 
	Parameter C_ALL_INPUTS bound to: 1 - type: integer 
	Parameter C_ALL_INPUTS_2 bound to: 0 - type: integer 
	Parameter C_ALL_OUTPUTS bound to: 0 - type: integer 
	Parameter C_ALL_OUTPUTS_2 bound to: 0 - type: integer 
	Parameter C_INTERRUPT_PRESENT bound to: 0 - type: integer 
	Parameter C_DOUT_DEFAULT bound to: 32'b00000000000000000000000000000000 
	Parameter C_TRI_DEFAULT bound to: 32'b11111111111111111111111111111111 
	Parameter C_IS_DUAL bound to: 0 - type: integer 
	Parameter C_DOUT_DEFAULT_2 bound to: 32'b00000000000000000000000000000000 
	Parameter C_TRI_DEFAULT_2 bound to: 32'b11111111111111111111111111111111 
INFO: [Synth 8-3491] module 'axi_gpio' declared at '/home/user/MPS/riscv_kernel/riscv_kernel_kernels/vivado_rtl_kernel/riscv_template_ex/riscv_template_ex.gen/sources_1/bd/gpn_bundle_block/ipshared/4318/hdl/axi_gpio_v2_0_vh_rfs.vhd:1265' bound to instance 'U0' of component 'axi_gpio' [/home/user/MPS/riscv_kernel/riscv_kernel_kernels/vivado_rtl_kernel/riscv_template_ex/riscv_template_ex.gen/sources_1/bd/gpn_bundle_block_v001/ip/gpn_bundle_block_axi_gpio_2_1/synth/gpn_bundle_block_axi_gpio_2_1.vhd:169]
INFO: [Synth 8-638] synthesizing module 'axi_gpio' [/home/user/MPS/riscv_kernel/riscv_kernel_kernels/vivado_rtl_kernel/riscv_template_ex/riscv_template_ex.gen/sources_1/bd/gpn_bundle_block/ipshared/4318/hdl/axi_gpio_v2_0_vh_rfs.vhd:1351]
	Parameter C_FAMILY bound to: virtexuplus - type: string 
	Parameter C_S_AXI_ADDR_WIDTH bound to: 9 - type: integer 
	Parameter C_S_AXI_DATA_WIDTH bound to: 32 - type: integer 
	Parameter C_GPIO_WIDTH bound to: 32 - type: integer 
	Parameter C_GPIO2_WIDTH bound to: 32 - type: integer 
	Parameter C_ALL_INPUTS bound to: 1 - type: integer 
	Parameter C_ALL_INPUTS_2 bound to: 0 - type: integer 
	Parameter C_ALL_OUTPUTS bound to: 0 - type: integer 
	Parameter C_ALL_OUTPUTS_2 bound to: 0 - type: integer 
	Parameter C_INTERRUPT_PRESENT bound to: 0 - type: integer 
	Parameter C_DOUT_DEFAULT bound to: 0 - type: integer 
	Parameter C_TRI_DEFAULT bound to: -1 - type: integer 
	Parameter C_IS_DUAL bound to: 0 - type: integer 
	Parameter C_DOUT_DEFAULT_2 bound to: 0 - type: integer 
	Parameter C_TRI_DEFAULT_2 bound to: -1 - type: integer 
INFO: [Synth 8-638] synthesizing module 'axi_lite_ipif' [/home/user/MPS/riscv_kernel/riscv_kernel_kernels/vivado_rtl_kernel/riscv_template_ex/riscv_template_ex.gen/sources_1/bd/gpn_bundle_block/ipshared/66ea/hdl/axi_lite_ipif_v3_0_vh_rfs.vhd:2948]
	Parameter C_S_AXI_DATA_WIDTH bound to: 32 - type: integer 
	Parameter C_S_AXI_ADDR_WIDTH bound to: 9 - type: integer 
	Parameter C_S_AXI_MIN_SIZE bound to: 32'b00000000000000000000000111111111 
	Parameter C_USE_WSTRB bound to: 0 - type: integer 
	Parameter C_DPHASE_TIMEOUT bound to: 8 - type: integer 
	Parameter C_ARD_ADDR_RANGE_ARRAY bound to: 128'b00000000000000000000000000000000000000000000000000000000000000000000000000000000000000000000000000000000000000000000000000001111 
	Parameter C_ARD_NUM_CE_ARRAY bound to: 32'b00000000000000000000000000000100 
	Parameter C_FAMILY bound to: virtexuplus - type: string 
INFO: [Synth 8-638] synthesizing module 'slave_attachment' [/home/user/MPS/riscv_kernel/riscv_kernel_kernels/vivado_rtl_kernel/riscv_template_ex/riscv_template_ex.gen/sources_1/bd/gpn_bundle_block/ipshared/66ea/hdl/axi_lite_ipif_v3_0_vh_rfs.vhd:2341]
	Parameter C_ARD_ADDR_RANGE_ARRAY bound to: 128'b00000000000000000000000000000000000000000000000000000000000000000000000000000000000000000000000000000000000000000000000000001111 
	Parameter C_ARD_NUM_CE_ARRAY bound to: 32'b00000000000000000000000000000100 
	Parameter C_IPIF_ABUS_WIDTH bound to: 9 - type: integer 
	Parameter C_IPIF_DBUS_WIDTH bound to: 32 - type: integer 
	Parameter C_S_AXI_MIN_SIZE bound to: 511 - type: integer 
	Parameter C_USE_WSTRB bound to: 0 - type: integer 
	Parameter C_DPHASE_TIMEOUT bound to: 8 - type: integer 
	Parameter C_FAMILY bound to: virtexuplus - type: string 
INFO: [Synth 8-638] synthesizing module 'address_decoder' [/home/user/MPS/riscv_kernel/riscv_kernel_kernels/vivado_rtl_kernel/riscv_template_ex/riscv_template_ex.gen/sources_1/bd/gpn_bundle_block/ipshared/66ea/hdl/axi_lite_ipif_v3_0_vh_rfs.vhd:1775]
	Parameter C_BUS_AWIDTH bound to: 9 - type: integer 
	Parameter C_S_AXI_MIN_SIZE bound to: 511 - type: integer 
	Parameter C_ARD_ADDR_RANGE_ARRAY bound to: 128'b00000000000000000000000000000000000000000000000000000000000000000000000000000000000000000000000000000000000000000000000000001111 
	Parameter C_ARD_NUM_CE_ARRAY bound to: 32'b00000000000000000000000000000100 
	Parameter C_FAMILY bound to: nofamily - type: string 
INFO: [Synth 8-638] synthesizing module 'pselect_f' [/home/user/MPS/riscv_kernel/riscv_kernel_kernels/vivado_rtl_kernel/riscv_template_ex/riscv_template_ex.gen/sources_1/bd/gpn_bundle_block/ipshared/66ea/hdl/axi_lite_ipif_v3_0_vh_rfs.vhd:1534]
	Parameter C_AB bound to: 2 - type: integer 
	Parameter C_AW bound to: 2 - type: integer 
	Parameter C_BAR bound to: 2'b00 
	Parameter C_FAMILY bound to: nofamily - type: string 
INFO: [Synth 8-256] done synthesizing module 'pselect_f' (1#1) [/home/user/MPS/riscv_kernel/riscv_kernel_kernels/vivado_rtl_kernel/riscv_template_ex/riscv_template_ex.gen/sources_1/bd/gpn_bundle_block/ipshared/66ea/hdl/axi_lite_ipif_v3_0_vh_rfs.vhd:1534]
INFO: [Synth 8-638] synthesizing module 'pselect_f__parameterized0' [/home/user/MPS/riscv_kernel/riscv_kernel_kernels/vivado_rtl_kernel/riscv_template_ex/riscv_template_ex.gen/sources_1/bd/gpn_bundle_block/ipshared/66ea/hdl/axi_lite_ipif_v3_0_vh_rfs.vhd:1534]
	Parameter C_AB bound to: 2 - type: integer 
	Parameter C_AW bound to: 2 - type: integer 
	Parameter C_BAR bound to: 2'b01 
	Parameter C_FAMILY bound to: nofamily - type: string 
INFO: [Synth 8-256] done synthesizing module 'pselect_f__parameterized0' (1#1) [/home/user/MPS/riscv_kernel/riscv_kernel_kernels/vivado_rtl_kernel/riscv_template_ex/riscv_template_ex.gen/sources_1/bd/gpn_bundle_block/ipshared/66ea/hdl/axi_lite_ipif_v3_0_vh_rfs.vhd:1534]
INFO: [Synth 8-638] synthesizing module 'pselect_f__parameterized1' [/home/user/MPS/riscv_kernel/riscv_kernel_kernels/vivado_rtl_kernel/riscv_template_ex/riscv_template_ex.gen/sources_1/bd/gpn_bundle_block/ipshared/66ea/hdl/axi_lite_ipif_v3_0_vh_rfs.vhd:1534]
	Parameter C_AB bound to: 2 - type: integer 
	Parameter C_AW bound to: 2 - type: integer 
	Parameter C_BAR bound to: 2'b10 
	Parameter C_FAMILY bound to: nofamily - type: string 
INFO: [Synth 8-256] done synthesizing module 'pselect_f__parameterized1' (1#1) [/home/user/MPS/riscv_kernel/riscv_kernel_kernels/vivado_rtl_kernel/riscv_template_ex/riscv_template_ex.gen/sources_1/bd/gpn_bundle_block/ipshared/66ea/hdl/axi_lite_ipif_v3_0_vh_rfs.vhd:1534]
INFO: [Synth 8-638] synthesizing module 'pselect_f__parameterized2' [/home/user/MPS/riscv_kernel/riscv_kernel_kernels/vivado_rtl_kernel/riscv_template_ex/riscv_template_ex.gen/sources_1/bd/gpn_bundle_block/ipshared/66ea/hdl/axi_lite_ipif_v3_0_vh_rfs.vhd:1534]
	Parameter C_AB bound to: 2 - type: integer 
	Parameter C_AW bound to: 2 - type: integer 
	Parameter C_BAR bound to: 2'b11 
	Parameter C_FAMILY bound to: nofamily - type: string 
INFO: [Synth 8-256] done synthesizing module 'pselect_f__parameterized2' (1#1) [/home/user/MPS/riscv_kernel/riscv_kernel_kernels/vivado_rtl_kernel/riscv_template_ex/riscv_template_ex.gen/sources_1/bd/gpn_bundle_block/ipshared/66ea/hdl/axi_lite_ipif_v3_0_vh_rfs.vhd:1534]
INFO: [Synth 8-256] done synthesizing module 'address_decoder' (2#1) [/home/user/MPS/riscv_kernel/riscv_kernel_kernels/vivado_rtl_kernel/riscv_template_ex/riscv_template_ex.gen/sources_1/bd/gpn_bundle_block/ipshared/66ea/hdl/axi_lite_ipif_v3_0_vh_rfs.vhd:1775]
INFO: [Synth 8-226] default block is never used [/home/user/MPS/riscv_kernel/riscv_kernel_kernels/vivado_rtl_kernel/riscv_template_ex/riscv_template_ex.gen/sources_1/bd/gpn_bundle_block/ipshared/66ea/hdl/axi_lite_ipif_v3_0_vh_rfs.vhd:2550]
INFO: [Synth 8-256] done synthesizing module 'slave_attachment' (3#1) [/home/user/MPS/riscv_kernel/riscv_kernel_kernels/vivado_rtl_kernel/riscv_template_ex/riscv_template_ex.gen/sources_1/bd/gpn_bundle_block/ipshared/66ea/hdl/axi_lite_ipif_v3_0_vh_rfs.vhd:2341]
INFO: [Synth 8-256] done synthesizing module 'axi_lite_ipif' (4#1) [/home/user/MPS/riscv_kernel/riscv_kernel_kernels/vivado_rtl_kernel/riscv_template_ex/riscv_template_ex.gen/sources_1/bd/gpn_bundle_block/ipshared/66ea/hdl/axi_lite_ipif_v3_0_vh_rfs.vhd:2948]
INFO: [Synth 8-638] synthesizing module 'GPIO_Core' [/home/user/MPS/riscv_kernel/riscv_kernel_kernels/vivado_rtl_kernel/riscv_template_ex/riscv_template_ex.gen/sources_1/bd/gpn_bundle_block/ipshared/4318/hdl/axi_gpio_v2_0_vh_rfs.vhd:178]
	Parameter C_DW bound to: 32 - type: integer 
	Parameter C_AW bound to: 9 - type: integer 
	Parameter C_GPIO_WIDTH bound to: 32 - type: integer 
	Parameter C_GPIO2_WIDTH bound to: 32 - type: integer 
	Parameter C_MAX_GPIO_WIDTH bound to: 32 - type: integer 
	Parameter C_INTERRUPT_PRESENT bound to: 0 - type: integer 
	Parameter C_DOUT_DEFAULT bound to: 0 - type: integer 
	Parameter C_TRI_DEFAULT bound to: -1 - type: integer 
	Parameter C_IS_DUAL bound to: 0 - type: integer 
	Parameter C_ALL_OUTPUTS bound to: 0 - type: integer 
	Parameter C_ALL_OUTPUTS_2 bound to: 0 - type: integer 
	Parameter C_ALL_INPUTS bound to: 1 - type: integer 
	Parameter C_ALL_INPUTS_2 bound to: 0 - type: integer 
	Parameter C_DOUT_DEFAULT_2 bound to: 0 - type: integer 
	Parameter C_TRI_DEFAULT_2 bound to: -1 - type: integer 
	Parameter C_FAMILY bound to: virtexuplus - type: string 
INFO: [Synth 8-226] default block is never used [/home/user/MPS/riscv_kernel/riscv_kernel_kernels/vivado_rtl_kernel/riscv_template_ex/riscv_template_ex.gen/sources_1/bd/gpn_bundle_block/ipshared/4318/hdl/axi_gpio_v2_0_vh_rfs.vhd:443]
INFO: [Synth 8-638] synthesizing module 'cdc_sync' [/home/user/MPS/riscv_kernel/riscv_kernel_kernels/vivado_rtl_kernel/riscv_template_ex/riscv_template_ex.gen/sources_1/bd/gpn_bundle_block/ipshared/ef1e/hdl/lib_cdc_v1_0_rfs.vhd:106]
	Parameter C_CDC_TYPE bound to: 1 - type: integer 
	Parameter C_RESET_STATE bound to: 0 - type: integer 
	Parameter C_SINGLE_BIT bound to: 0 - type: integer 
	Parameter C_FLOP_INPUT bound to: 0 - type: integer 
	Parameter C_VECTOR_WIDTH bound to: 32 - type: integer 
	Parameter C_MTBF_STAGES bound to: 4 - type: integer 
	Parameter INIT bound to: 1'b0 
INFO: [Synth 8-113] binding component instance 'CROSS2_PLEVEL_IN2SCNDRY_IN_cdc_to' to cell 'FDR' [/home/user/MPS/riscv_kernel/riscv_kernel_kernels/vivado_rtl_kernel/riscv_template_ex/riscv_template_ex.gen/sources_1/bd/gpn_bundle_block/ipshared/ef1e/hdl/lib_cdc_v1_0_rfs.vhd:736]
	Parameter INIT bound to: 1'b0 
INFO: [Synth 8-113] binding component instance 'CROSS2_PLEVEL_IN2SCNDRY_IN_cdc_to' to cell 'FDR' [/home/user/MPS/riscv_kernel/riscv_kernel_kernels/vivado_rtl_kernel/riscv_template_ex/riscv_template_ex.gen/sources_1/bd/gpn_bundle_block/ipshared/ef1e/hdl/lib_cdc_v1_0_rfs.vhd:736]
	Parameter INIT bound to: 1'b0 
INFO: [Synth 8-113] binding component instance 'CROSS2_PLEVEL_IN2SCNDRY_IN_cdc_to' to cell 'FDR' [/home/user/MPS/riscv_kernel/riscv_kernel_kernels/vivado_rtl_kernel/riscv_template_ex/riscv_template_ex.gen/sources_1/bd/gpn_bundle_block/ipshared/ef1e/hdl/lib_cdc_v1_0_rfs.vhd:736]
	Parameter INIT bound to: 1'b0 
INFO: [Synth 8-113] binding component instance 'CROSS2_PLEVEL_IN2SCNDRY_IN_cdc_to' to cell 'FDR' [/home/user/MPS/riscv_kernel/riscv_kernel_kernels/vivado_rtl_kernel/riscv_template_ex/riscv_template_ex.gen/sources_1/bd/gpn_bundle_block/ipshared/ef1e/hdl/lib_cdc_v1_0_rfs.vhd:736]
	Parameter INIT bound to: 1'b0 
INFO: [Synth 8-113] binding component instance 'CROSS2_PLEVEL_IN2SCNDRY_IN_cdc_to' to cell 'FDR' [/home/user/MPS/riscv_kernel/riscv_kernel_kernels/vivado_rtl_kernel/riscv_template_ex/riscv_template_ex.gen/sources_1/bd/gpn_bundle_block/ipshared/ef1e/hdl/lib_cdc_v1_0_rfs.vhd:736]
	Parameter INIT bound to: 1'b0 
INFO: [Synth 8-113] binding component instance 'CROSS2_PLEVEL_IN2SCNDRY_IN_cdc_to' to cell 'FDR' [/home/user/MPS/riscv_kernel/riscv_kernel_kernels/vivado_rtl_kernel/riscv_template_ex/riscv_template_ex.gen/sources_1/bd/gpn_bundle_block/ipshared/ef1e/hdl/lib_cdc_v1_0_rfs.vhd:736]
	Parameter INIT bound to: 1'b0 
INFO: [Synth 8-113] binding component instance 'CROSS2_PLEVEL_IN2SCNDRY_IN_cdc_to' to cell 'FDR' [/home/user/MPS/riscv_kernel/riscv_kernel_kernels/vivado_rtl_kernel/riscv_template_ex/riscv_template_ex.gen/sources_1/bd/gpn_bundle_block/ipshared/ef1e/hdl/lib_cdc_v1_0_rfs.vhd:736]
	Parameter INIT bound to: 1'b0 
INFO: [Synth 8-113] binding component instance 'CROSS2_PLEVEL_IN2SCNDRY_IN_cdc_to' to cell 'FDR' [/home/user/MPS/riscv_kernel/riscv_kernel_kernels/vivado_rtl_kernel/riscv_template_ex/riscv_template_ex.gen/sources_1/bd/gpn_bundle_block/ipshared/ef1e/hdl/lib_cdc_v1_0_rfs.vhd:736]
	Parameter INIT bound to: 1'b0 
INFO: [Synth 8-113] binding component instance 'CROSS2_PLEVEL_IN2SCNDRY_IN_cdc_to' to cell 'FDR' [/home/user/MPS/riscv_kernel/riscv_kernel_kernels/vivado_rtl_kernel/riscv_template_ex/riscv_template_ex.gen/sources_1/bd/gpn_bundle_block/ipshared/ef1e/hdl/lib_cdc_v1_0_rfs.vhd:736]
	Parameter INIT bound to: 1'b0 
INFO: [Synth 8-113] binding component instance 'CROSS2_PLEVEL_IN2SCNDRY_IN_cdc_to' to cell 'FDR' [/home/user/MPS/riscv_kernel/riscv_kernel_kernels/vivado_rtl_kernel/riscv_template_ex/riscv_template_ex.gen/sources_1/bd/gpn_bundle_block/ipshared/ef1e/hdl/lib_cdc_v1_0_rfs.vhd:736]
	Parameter INIT bound to: 1'b0 
INFO: [Synth 8-113] binding component instance 'CROSS2_PLEVEL_IN2SCNDRY_IN_cdc_to' to cell 'FDR' [/home/user/MPS/riscv_kernel/riscv_kernel_kernels/vivado_rtl_kernel/riscv_template_ex/riscv_template_ex.gen/sources_1/bd/gpn_bundle_block/ipshared/ef1e/hdl/lib_cdc_v1_0_rfs.vhd:736]
	Parameter INIT bound to: 1'b0 
INFO: [Synth 8-113] binding component instance 'CROSS2_PLEVEL_IN2SCNDRY_IN_cdc_to' to cell 'FDR' [/home/user/MPS/riscv_kernel/riscv_kernel_kernels/vivado_rtl_kernel/riscv_template_ex/riscv_template_ex.gen/sources_1/bd/gpn_bundle_block/ipshared/ef1e/hdl/lib_cdc_v1_0_rfs.vhd:736]
	Parameter INIT bound to: 1'b0 
INFO: [Synth 8-113] binding component instance 'CROSS2_PLEVEL_IN2SCNDRY_IN_cdc_to' to cell 'FDR' [/home/user/MPS/riscv_kernel/riscv_kernel_kernels/vivado_rtl_kernel/riscv_template_ex/riscv_template_ex.gen/sources_1/bd/gpn_bundle_block/ipshared/ef1e/hdl/lib_cdc_v1_0_rfs.vhd:736]
	Parameter INIT bound to: 1'b0 
INFO: [Synth 8-113] binding component instance 'CROSS2_PLEVEL_IN2SCNDRY_IN_cdc_to' to cell 'FDR' [/home/user/MPS/riscv_kernel/riscv_kernel_kernels/vivado_rtl_kernel/riscv_template_ex/riscv_template_ex.gen/sources_1/bd/gpn_bundle_block/ipshared/ef1e/hdl/lib_cdc_v1_0_rfs.vhd:736]
	Parameter INIT bound to: 1'b0 
INFO: [Synth 8-113] binding component instance 'CROSS2_PLEVEL_IN2SCNDRY_IN_cdc_to' to cell 'FDR' [/home/user/MPS/riscv_kernel/riscv_kernel_kernels/vivado_rtl_kernel/riscv_template_ex/riscv_template_ex.gen/sources_1/bd/gpn_bundle_block/ipshared/ef1e/hdl/lib_cdc_v1_0_rfs.vhd:736]
	Parameter INIT bound to: 1'b0 
INFO: [Synth 8-113] binding component instance 'CROSS2_PLEVEL_IN2SCNDRY_IN_cdc_to' to cell 'FDR' [/home/user/MPS/riscv_kernel/riscv_kernel_kernels/vivado_rtl_kernel/riscv_template_ex/riscv_template_ex.gen/sources_1/bd/gpn_bundle_block/ipshared/ef1e/hdl/lib_cdc_v1_0_rfs.vhd:736]
	Parameter INIT bound to: 1'b0 
INFO: [Synth 8-113] binding component instance 'CROSS2_PLEVEL_IN2SCNDRY_IN_cdc_to' to cell 'FDR' [/home/user/MPS/riscv_kernel/riscv_kernel_kernels/vivado_rtl_kernel/riscv_template_ex/riscv_template_ex.gen/sources_1/bd/gpn_bundle_block/ipshared/ef1e/hdl/lib_cdc_v1_0_rfs.vhd:736]
	Parameter INIT bound to: 1'b0 
INFO: [Synth 8-113] binding component instance 'CROSS2_PLEVEL_IN2SCNDRY_IN_cdc_to' to cell 'FDR' [/home/user/MPS/riscv_kernel/riscv_kernel_kernels/vivado_rtl_kernel/riscv_template_ex/riscv_template_ex.gen/sources_1/bd/gpn_bundle_block/ipshared/ef1e/hdl/lib_cdc_v1_0_rfs.vhd:736]
	Parameter INIT bound to: 1'b0 
INFO: [Synth 8-113] binding component instance 'CROSS2_PLEVEL_IN2SCNDRY_IN_cdc_to' to cell 'FDR' [/home/user/MPS/riscv_kernel/riscv_kernel_kernels/vivado_rtl_kernel/riscv_template_ex/riscv_template_ex.gen/sources_1/bd/gpn_bundle_block/ipshared/ef1e/hdl/lib_cdc_v1_0_rfs.vhd:736]
	Parameter INIT bound to: 1'b0 
INFO: [Synth 8-113] binding component instance 'CROSS2_PLEVEL_IN2SCNDRY_IN_cdc_to' to cell 'FDR' [/home/user/MPS/riscv_kernel/riscv_kernel_kernels/vivado_rtl_kernel/riscv_template_ex/riscv_template_ex.gen/sources_1/bd/gpn_bundle_block/ipshared/ef1e/hdl/lib_cdc_v1_0_rfs.vhd:736]
	Parameter INIT bound to: 1'b0 
INFO: [Synth 8-113] binding component instance 'CROSS2_PLEVEL_IN2SCNDRY_IN_cdc_to' to cell 'FDR' [/home/user/MPS/riscv_kernel/riscv_kernel_kernels/vivado_rtl_kernel/riscv_template_ex/riscv_template_ex.gen/sources_1/bd/gpn_bundle_block/ipshared/ef1e/hdl/lib_cdc_v1_0_rfs.vhd:736]
	Parameter INIT bound to: 1'b0 
INFO: [Synth 8-113] binding component instance 'CROSS2_PLEVEL_IN2SCNDRY_IN_cdc_to' to cell 'FDR' [/home/user/MPS/riscv_kernel/riscv_kernel_kernels/vivado_rtl_kernel/riscv_template_ex/riscv_template_ex.gen/sources_1/bd/gpn_bundle_block/ipshared/ef1e/hdl/lib_cdc_v1_0_rfs.vhd:736]
	Parameter INIT bound to: 1'b0 
INFO: [Synth 8-113] binding component instance 'CROSS2_PLEVEL_IN2SCNDRY_IN_cdc_to' to cell 'FDR' [/home/user/MPS/riscv_kernel/riscv_kernel_kernels/vivado_rtl_kernel/riscv_template_ex/riscv_template_ex.gen/sources_1/bd/gpn_bundle_block/ipshared/ef1e/hdl/lib_cdc_v1_0_rfs.vhd:736]
	Parameter INIT bound to: 1'b0 
INFO: [Synth 8-113] binding component instance 'CROSS2_PLEVEL_IN2SCNDRY_IN_cdc_to' to cell 'FDR' [/home/user/MPS/riscv_kernel/riscv_kernel_kernels/vivado_rtl_kernel/riscv_template_ex/riscv_template_ex.gen/sources_1/bd/gpn_bundle_block/ipshared/ef1e/hdl/lib_cdc_v1_0_rfs.vhd:736]
	Parameter INIT bound to: 1'b0 
INFO: [Synth 8-113] binding component instance 'CROSS2_PLEVEL_IN2SCNDRY_IN_cdc_to' to cell 'FDR' [/home/user/MPS/riscv_kernel/riscv_kernel_kernels/vivado_rtl_kernel/riscv_template_ex/riscv_template_ex.gen/sources_1/bd/gpn_bundle_block/ipshared/ef1e/hdl/lib_cdc_v1_0_rfs.vhd:736]
	Parameter INIT bound to: 1'b0 
INFO: [Synth 8-113] binding component instance 'CROSS2_PLEVEL_IN2SCNDRY_IN_cdc_to' to cell 'FDR' [/home/user/MPS/riscv_kernel/riscv_kernel_kernels/vivado_rtl_kernel/riscv_template_ex/riscv_template_ex.gen/sources_1/bd/gpn_bundle_block/ipshared/ef1e/hdl/lib_cdc_v1_0_rfs.vhd:736]
	Parameter INIT bound to: 1'b0 
INFO: [Synth 8-113] binding component instance 'CROSS2_PLEVEL_IN2SCNDRY_IN_cdc_to' to cell 'FDR' [/home/user/MPS/riscv_kernel/riscv_kernel_kernels/vivado_rtl_kernel/riscv_template_ex/riscv_template_ex.gen/sources_1/bd/gpn_bundle_block/ipshared/ef1e/hdl/lib_cdc_v1_0_rfs.vhd:736]
	Parameter INIT bound to: 1'b0 
INFO: [Synth 8-113] binding component instance 'CROSS2_PLEVEL_IN2SCNDRY_IN_cdc_to' to cell 'FDR' [/home/user/MPS/riscv_kernel/riscv_kernel_kernels/vivado_rtl_kernel/riscv_template_ex/riscv_template_ex.gen/sources_1/bd/gpn_bundle_block/ipshared/ef1e/hdl/lib_cdc_v1_0_rfs.vhd:736]
	Parameter INIT bound to: 1'b0 
INFO: [Synth 8-113] binding component instance 'CROSS2_PLEVEL_IN2SCNDRY_IN_cdc_to' to cell 'FDR' [/home/user/MPS/riscv_kernel/riscv_kernel_kernels/vivado_rtl_kernel/riscv_template_ex/riscv_template_ex.gen/sources_1/bd/gpn_bundle_block/ipshared/ef1e/hdl/lib_cdc_v1_0_rfs.vhd:736]
	Parameter INIT bound to: 1'b0 
INFO: [Synth 8-113] binding component instance 'CROSS2_PLEVEL_IN2SCNDRY_IN_cdc_to' to cell 'FDR' [/home/user/MPS/riscv_kernel/riscv_kernel_kernels/vivado_rtl_kernel/riscv_template_ex/riscv_template_ex.gen/sources_1/bd/gpn_bundle_block/ipshared/ef1e/hdl/lib_cdc_v1_0_rfs.vhd:736]
	Parameter INIT bound to: 1'b0 
INFO: [Synth 8-113] binding component instance 'CROSS2_PLEVEL_IN2SCNDRY_IN_cdc_to' to cell 'FDR' [/home/user/MPS/riscv_kernel/riscv_kernel_kernels/vivado_rtl_kernel/riscv_template_ex/riscv_template_ex.gen/sources_1/bd/gpn_bundle_block/ipshared/ef1e/hdl/lib_cdc_v1_0_rfs.vhd:736]
	Parameter INIT bound to: 1'b0 
INFO: [Synth 8-113] binding component instance 'CROSS2_PLEVEL_IN2SCNDRY_IN_cdc_to' to cell 'FDR' [/home/user/MPS/riscv_kernel/riscv_kernel_kernels/vivado_rtl_kernel/riscv_template_ex/riscv_template_ex.gen/sources_1/bd/gpn_bundle_block/ipshared/ef1e/hdl/lib_cdc_v1_0_rfs.vhd:736]
	Parameter INIT bound to: 1'b0 
INFO: [Synth 8-113] binding component instance 'CROSS2_PLEVEL_IN2SCNDRY_s_level_out_bus_d2' to cell 'FDR' [/home/user/MPS/riscv_kernel/riscv_kernel_kernels/vivado_rtl_kernel/riscv_template_ex/riscv_template_ex.gen/sources_1/bd/gpn_bundle_block/ipshared/ef1e/hdl/lib_cdc_v1_0_rfs.vhd:772]
	Parameter INIT bound to: 1'b0 
INFO: [Synth 8-113] binding component instance 'CROSS2_PLEVEL_IN2SCNDRY_s_level_out_bus_d2' to cell 'FDR' [/home/user/MPS/riscv_kernel/riscv_kernel_kernels/vivado_rtl_kernel/riscv_template_ex/riscv_template_ex.gen/sources_1/bd/gpn_bundle_block/ipshared/ef1e/hdl/lib_cdc_v1_0_rfs.vhd:772]
	Parameter INIT bound to: 1'b0 
INFO: [Synth 8-113] binding component instance 'CROSS2_PLEVEL_IN2SCNDRY_s_level_out_bus_d2' to cell 'FDR' [/home/user/MPS/riscv_kernel/riscv_kernel_kernels/vivado_rtl_kernel/riscv_template_ex/riscv_template_ex.gen/sources_1/bd/gpn_bundle_block/ipshared/ef1e/hdl/lib_cdc_v1_0_rfs.vhd:772]
	Parameter INIT bound to: 1'b0 
INFO: [Synth 8-113] binding component instance 'CROSS2_PLEVEL_IN2SCNDRY_s_level_out_bus_d2' to cell 'FDR' [/home/user/MPS/riscv_kernel/riscv_kernel_kernels/vivado_rtl_kernel/riscv_template_ex/riscv_template_ex.gen/sources_1/bd/gpn_bundle_block/ipshared/ef1e/hdl/lib_cdc_v1_0_rfs.vhd:772]
	Parameter INIT bound to: 1'b0 
INFO: [Synth 8-113] binding component instance 'CROSS2_PLEVEL_IN2SCNDRY_s_level_out_bus_d2' to cell 'FDR' [/home/user/MPS/riscv_kernel/riscv_kernel_kernels/vivado_rtl_kernel/riscv_template_ex/riscv_template_ex.gen/sources_1/bd/gpn_bundle_block/ipshared/ef1e/hdl/lib_cdc_v1_0_rfs.vhd:772]
	Parameter INIT bound to: 1'b0 
INFO: [Synth 8-113] binding component instance 'CROSS2_PLEVEL_IN2SCNDRY_s_level_out_bus_d2' to cell 'FDR' [/home/user/MPS/riscv_kernel/riscv_kernel_kernels/vivado_rtl_kernel/riscv_template_ex/riscv_template_ex.gen/sources_1/bd/gpn_bundle_block/ipshared/ef1e/hdl/lib_cdc_v1_0_rfs.vhd:772]
	Parameter INIT bound to: 1'b0 
INFO: [Synth 8-113] binding component instance 'CROSS2_PLEVEL_IN2SCNDRY_s_level_out_bus_d2' to cell 'FDR' [/home/user/MPS/riscv_kernel/riscv_kernel_kernels/vivado_rtl_kernel/riscv_template_ex/riscv_template_ex.gen/sources_1/bd/gpn_bundle_block/ipshared/ef1e/hdl/lib_cdc_v1_0_rfs.vhd:772]
	Parameter INIT bound to: 1'b0 
INFO: [Synth 8-113] binding component instance 'CROSS2_PLEVEL_IN2SCNDRY_s_level_out_bus_d2' to cell 'FDR' [/home/user/MPS/riscv_kernel/riscv_kernel_kernels/vivado_rtl_kernel/riscv_template_ex/riscv_template_ex.gen/sources_1/bd/gpn_bundle_block/ipshared/ef1e/hdl/lib_cdc_v1_0_rfs.vhd:772]
	Parameter INIT bound to: 1'b0 
INFO: [Synth 8-113] binding component instance 'CROSS2_PLEVEL_IN2SCNDRY_s_level_out_bus_d2' to cell 'FDR' [/home/user/MPS/riscv_kernel/riscv_kernel_kernels/vivado_rtl_kernel/riscv_template_ex/riscv_template_ex.gen/sources_1/bd/gpn_bundle_block/ipshared/ef1e/hdl/lib_cdc_v1_0_rfs.vhd:772]
	Parameter INIT bound to: 1'b0 
INFO: [Synth 8-113] binding component instance 'CROSS2_PLEVEL_IN2SCNDRY_s_level_out_bus_d2' to cell 'FDR' [/home/user/MPS/riscv_kernel/riscv_kernel_kernels/vivado_rtl_kernel/riscv_template_ex/riscv_template_ex.gen/sources_1/bd/gpn_bundle_block/ipshared/ef1e/hdl/lib_cdc_v1_0_rfs.vhd:772]
	Parameter INIT bound to: 1'b0 
INFO: [Synth 8-113] binding component instance 'CROSS2_PLEVEL_IN2SCNDRY_s_level_out_bus_d2' to cell 'FDR' [/home/user/MPS/riscv_kernel/riscv_kernel_kernels/vivado_rtl_kernel/riscv_template_ex/riscv_template_ex.gen/sources_1/bd/gpn_bundle_block/ipshared/ef1e/hdl/lib_cdc_v1_0_rfs.vhd:772]
	Parameter INIT bound to: 1'b0 
INFO: [Synth 8-113] binding component instance 'CROSS2_PLEVEL_IN2SCNDRY_s_level_out_bus_d2' to cell 'FDR' [/home/user/MPS/riscv_kernel/riscv_kernel_kernels/vivado_rtl_kernel/riscv_template_ex/riscv_template_ex.gen/sources_1/bd/gpn_bundle_block/ipshared/ef1e/hdl/lib_cdc_v1_0_rfs.vhd:772]
	Parameter INIT bound to: 1'b0 
INFO: [Synth 8-113] binding component instance 'CROSS2_PLEVEL_IN2SCNDRY_s_level_out_bus_d2' to cell 'FDR' [/home/user/MPS/riscv_kernel/riscv_kernel_kernels/vivado_rtl_kernel/riscv_template_ex/riscv_template_ex.gen/sources_1/bd/gpn_bundle_block/ipshared/ef1e/hdl/lib_cdc_v1_0_rfs.vhd:772]
	Parameter INIT bound to: 1'b0 
INFO: [Synth 8-113] binding component instance 'CROSS2_PLEVEL_IN2SCNDRY_s_level_out_bus_d2' to cell 'FDR' [/home/user/MPS/riscv_kernel/riscv_kernel_kernels/vivado_rtl_kernel/riscv_template_ex/riscv_template_ex.gen/sources_1/bd/gpn_bundle_block/ipshared/ef1e/hdl/lib_cdc_v1_0_rfs.vhd:772]
	Parameter INIT bound to: 1'b0 
INFO: [Synth 8-113] binding component instance 'CROSS2_PLEVEL_IN2SCNDRY_s_level_out_bus_d2' to cell 'FDR' [/home/user/MPS/riscv_kernel/riscv_kernel_kernels/vivado_rtl_kernel/riscv_template_ex/riscv_template_ex.gen/sources_1/bd/gpn_bundle_block/ipshared/ef1e/hdl/lib_cdc_v1_0_rfs.vhd:772]
	Parameter INIT bound to: 1'b0 
INFO: [Synth 8-113] binding component instance 'CROSS2_PLEVEL_IN2SCNDRY_s_level_out_bus_d2' to cell 'FDR' [/home/user/MPS/riscv_kernel/riscv_kernel_kernels/vivado_rtl_kernel/riscv_template_ex/riscv_template_ex.gen/sources_1/bd/gpn_bundle_block/ipshared/ef1e/hdl/lib_cdc_v1_0_rfs.vhd:772]
	Parameter INIT bound to: 1'b0 
INFO: [Synth 8-113] binding component instance 'CROSS2_PLEVEL_IN2SCNDRY_s_level_out_bus_d2' to cell 'FDR' [/home/user/MPS/riscv_kernel/riscv_kernel_kernels/vivado_rtl_kernel/riscv_template_ex/riscv_template_ex.gen/sources_1/bd/gpn_bundle_block/ipshared/ef1e/hdl/lib_cdc_v1_0_rfs.vhd:772]
	Parameter INIT bound to: 1'b0 
INFO: [Synth 8-113] binding component instance 'CROSS2_PLEVEL_IN2SCNDRY_s_level_out_bus_d2' to cell 'FDR' [/home/user/MPS/riscv_kernel/riscv_kernel_kernels/vivado_rtl_kernel/riscv_template_ex/riscv_template_ex.gen/sources_1/bd/gpn_bundle_block/ipshared/ef1e/hdl/lib_cdc_v1_0_rfs.vhd:772]
	Parameter INIT bound to: 1'b0 
INFO: [Synth 8-113] binding component instance 'CROSS2_PLEVEL_IN2SCNDRY_s_level_out_bus_d2' to cell 'FDR' [/home/user/MPS/riscv_kernel/riscv_kernel_kernels/vivado_rtl_kernel/riscv_template_ex/riscv_template_ex.gen/sources_1/bd/gpn_bundle_block/ipshared/ef1e/hdl/lib_cdc_v1_0_rfs.vhd:772]
	Parameter INIT bound to: 1'b0 
INFO: [Synth 8-113] binding component instance 'CROSS2_PLEVEL_IN2SCNDRY_s_level_out_bus_d2' to cell 'FDR' [/home/user/MPS/riscv_kernel/riscv_kernel_kernels/vivado_rtl_kernel/riscv_template_ex/riscv_template_ex.gen/sources_1/bd/gpn_bundle_block/ipshared/ef1e/hdl/lib_cdc_v1_0_rfs.vhd:772]
	Parameter INIT bound to: 1'b0 
INFO: [Synth 8-113] binding component instance 'CROSS2_PLEVEL_IN2SCNDRY_s_level_out_bus_d2' to cell 'FDR' [/home/user/MPS/riscv_kernel/riscv_kernel_kernels/vivado_rtl_kernel/riscv_template_ex/riscv_template_ex.gen/sources_1/bd/gpn_bundle_block/ipshared/ef1e/hdl/lib_cdc_v1_0_rfs.vhd:772]
	Parameter INIT bound to: 1'b0 
INFO: [Synth 8-113] binding component instance 'CROSS2_PLEVEL_IN2SCNDRY_s_level_out_bus_d2' to cell 'FDR' [/home/user/MPS/riscv_kernel/riscv_kernel_kernels/vivado_rtl_kernel/riscv_template_ex/riscv_template_ex.gen/sources_1/bd/gpn_bundle_block/ipshared/ef1e/hdl/lib_cdc_v1_0_rfs.vhd:772]
	Parameter INIT bound to: 1'b0 
INFO: [Synth 8-113] binding component instance 'CROSS2_PLEVEL_IN2SCNDRY_s_level_out_bus_d2' to cell 'FDR' [/home/user/MPS/riscv_kernel/riscv_kernel_kernels/vivado_rtl_kernel/riscv_template_ex/riscv_template_ex.gen/sources_1/bd/gpn_bundle_block/ipshared/ef1e/hdl/lib_cdc_v1_0_rfs.vhd:772]
	Parameter INIT bound to: 1'b0 
INFO: [Synth 8-113] binding component instance 'CROSS2_PLEVEL_IN2SCNDRY_s_level_out_bus_d2' to cell 'FDR' [/home/user/MPS/riscv_kernel/riscv_kernel_kernels/vivado_rtl_kernel/riscv_template_ex/riscv_template_ex.gen/sources_1/bd/gpn_bundle_block/ipshared/ef1e/hdl/lib_cdc_v1_0_rfs.vhd:772]
	Parameter INIT bound to: 1'b0 
INFO: [Synth 8-113] binding component instance 'CROSS2_PLEVEL_IN2SCNDRY_s_level_out_bus_d2' to cell 'FDR' [/home/user/MPS/riscv_kernel/riscv_kernel_kernels/vivado_rtl_kernel/riscv_template_ex/riscv_template_ex.gen/sources_1/bd/gpn_bundle_block/ipshared/ef1e/hdl/lib_cdc_v1_0_rfs.vhd:772]
	Parameter INIT bound to: 1'b0 
INFO: [Synth 8-113] binding component instance 'CROSS2_PLEVEL_IN2SCNDRY_s_level_out_bus_d2' to cell 'FDR' [/home/user/MPS/riscv_kernel/riscv_kernel_kernels/vivado_rtl_kernel/riscv_template_ex/riscv_template_ex.gen/sources_1/bd/gpn_bundle_block/ipshared/ef1e/hdl/lib_cdc_v1_0_rfs.vhd:772]
	Parameter INIT bound to: 1'b0 
INFO: [Synth 8-113] binding component instance 'CROSS2_PLEVEL_IN2SCNDRY_s_level_out_bus_d2' to cell 'FDR' [/home/user/MPS/riscv_kernel/riscv_kernel_kernels/vivado_rtl_kernel/riscv_template_ex/riscv_template_ex.gen/sources_1/bd/gpn_bundle_block/ipshared/ef1e/hdl/lib_cdc_v1_0_rfs.vhd:772]
	Parameter INIT bound to: 1'b0 
INFO: [Synth 8-113] binding component instance 'CROSS2_PLEVEL_IN2SCNDRY_s_level_out_bus_d2' to cell 'FDR' [/home/user/MPS/riscv_kernel/riscv_kernel_kernels/vivado_rtl_kernel/riscv_template_ex/riscv_template_ex.gen/sources_1/bd/gpn_bundle_block/ipshared/ef1e/hdl/lib_cdc_v1_0_rfs.vhd:772]
	Parameter INIT bound to: 1'b0 
INFO: [Synth 8-113] binding component instance 'CROSS2_PLEVEL_IN2SCNDRY_s_level_out_bus_d2' to cell 'FDR' [/home/user/MPS/riscv_kernel/riscv_kernel_kernels/vivado_rtl_kernel/riscv_template_ex/riscv_template_ex.gen/sources_1/bd/gpn_bundle_block/ipshared/ef1e/hdl/lib_cdc_v1_0_rfs.vhd:772]
	Parameter INIT bound to: 1'b0 
INFO: [Synth 8-113] binding component instance 'CROSS2_PLEVEL_IN2SCNDRY_s_level_out_bus_d2' to cell 'FDR' [/home/user/MPS/riscv_kernel/riscv_kernel_kernels/vivado_rtl_kernel/riscv_template_ex/riscv_template_ex.gen/sources_1/bd/gpn_bundle_block/ipshared/ef1e/hdl/lib_cdc_v1_0_rfs.vhd:772]
	Parameter INIT bound to: 1'b0 
INFO: [Synth 8-113] binding component instance 'CROSS2_PLEVEL_IN2SCNDRY_s_level_out_bus_d2' to cell 'FDR' [/home/user/MPS/riscv_kernel/riscv_kernel_kernels/vivado_rtl_kernel/riscv_template_ex/riscv_template_ex.gen/sources_1/bd/gpn_bundle_block/ipshared/ef1e/hdl/lib_cdc_v1_0_rfs.vhd:772]
	Parameter INIT bound to: 1'b0 
INFO: [Synth 8-113] binding component instance 'CROSS2_PLEVEL_IN2SCNDRY_s_level_out_bus_d2' to cell 'FDR' [/home/user/MPS/riscv_kernel/riscv_kernel_kernels/vivado_rtl_kernel/riscv_template_ex/riscv_template_ex.gen/sources_1/bd/gpn_bundle_block/ipshared/ef1e/hdl/lib_cdc_v1_0_rfs.vhd:772]
	Parameter INIT bound to: 1'b0 
INFO: [Synth 8-113] binding component instance 'CROSS2_PLEVEL_IN2SCNDRY_s_level_out_bus_d3' to cell 'FDR' [/home/user/MPS/riscv_kernel/riscv_kernel_kernels/vivado_rtl_kernel/riscv_template_ex/riscv_template_ex.gen/sources_1/bd/gpn_bundle_block/ipshared/ef1e/hdl/lib_cdc_v1_0_rfs.vhd:788]
	Parameter INIT bound to: 1'b0 
INFO: [Synth 8-113] binding component instance 'CROSS2_PLEVEL_IN2SCNDRY_s_level_out_bus_d3' to cell 'FDR' [/home/user/MPS/riscv_kernel/riscv_kernel_kernels/vivado_rtl_kernel/riscv_template_ex/riscv_template_ex.gen/sources_1/bd/gpn_bundle_block/ipshared/ef1e/hdl/lib_cdc_v1_0_rfs.vhd:788]
	Parameter INIT bound to: 1'b0 
INFO: [Synth 8-113] binding component instance 'CROSS2_PLEVEL_IN2SCNDRY_s_level_out_bus_d3' to cell 'FDR' [/home/user/MPS/riscv_kernel/riscv_kernel_kernels/vivado_rtl_kernel/riscv_template_ex/riscv_template_ex.gen/sources_1/bd/gpn_bundle_block/ipshared/ef1e/hdl/lib_cdc_v1_0_rfs.vhd:788]
	Parameter INIT bound to: 1'b0 
INFO: [Synth 8-113] binding component instance 'CROSS2_PLEVEL_IN2SCNDRY_s_level_out_bus_d3' to cell 'FDR' [/home/user/MPS/riscv_kernel/riscv_kernel_kernels/vivado_rtl_kernel/riscv_template_ex/riscv_template_ex.gen/sources_1/bd/gpn_bundle_block/ipshared/ef1e/hdl/lib_cdc_v1_0_rfs.vhd:788]
	Parameter INIT bound to: 1'b0 
INFO: [Synth 8-113] binding component instance 'CROSS2_PLEVEL_IN2SCNDRY_s_level_out_bus_d3' to cell 'FDR' [/home/user/MPS/riscv_kernel/riscv_kernel_kernels/vivado_rtl_kernel/riscv_template_ex/riscv_template_ex.gen/sources_1/bd/gpn_bundle_block/ipshared/ef1e/hdl/lib_cdc_v1_0_rfs.vhd:788]
	Parameter INIT bound to: 1'b0 
INFO: [Synth 8-113] binding component instance 'CROSS2_PLEVEL_IN2SCNDRY_s_level_out_bus_d3' to cell 'FDR' [/home/user/MPS/riscv_kernel/riscv_kernel_kernels/vivado_rtl_kernel/riscv_template_ex/riscv_template_ex.gen/sources_1/bd/gpn_bundle_block/ipshared/ef1e/hdl/lib_cdc_v1_0_rfs.vhd:788]
	Parameter INIT bound to: 1'b0 
INFO: [Synth 8-113] binding component instance 'CROSS2_PLEVEL_IN2SCNDRY_s_level_out_bus_d3' to cell 'FDR' [/home/user/MPS/riscv_kernel/riscv_kernel_kernels/vivado_rtl_kernel/riscv_template_ex/riscv_template_ex.gen/sources_1/bd/gpn_bundle_block/ipshared/ef1e/hdl/lib_cdc_v1_0_rfs.vhd:788]
	Parameter INIT bound to: 1'b0 
INFO: [Synth 8-113] binding component instance 'CROSS2_PLEVEL_IN2SCNDRY_s_level_out_bus_d3' to cell 'FDR' [/home/user/MPS/riscv_kernel/riscv_kernel_kernels/vivado_rtl_kernel/riscv_template_ex/riscv_template_ex.gen/sources_1/bd/gpn_bundle_block/ipshared/ef1e/hdl/lib_cdc_v1_0_rfs.vhd:788]
	Parameter INIT bound to: 1'b0 
INFO: [Synth 8-113] binding component instance 'CROSS2_PLEVEL_IN2SCNDRY_s_level_out_bus_d3' to cell 'FDR' [/home/user/MPS/riscv_kernel/riscv_kernel_kernels/vivado_rtl_kernel/riscv_template_ex/riscv_template_ex.gen/sources_1/bd/gpn_bundle_block/ipshared/ef1e/hdl/lib_cdc_v1_0_rfs.vhd:788]
	Parameter INIT bound to: 1'b0 
INFO: [Synth 8-113] binding component instance 'CROSS2_PLEVEL_IN2SCNDRY_s_level_out_bus_d3' to cell 'FDR' [/home/user/MPS/riscv_kernel/riscv_kernel_kernels/vivado_rtl_kernel/riscv_template_ex/riscv_template_ex.gen/sources_1/bd/gpn_bundle_block/ipshared/ef1e/hdl/lib_cdc_v1_0_rfs.vhd:788]
	Parameter INIT bound to: 1'b0 
INFO: [Synth 8-113] binding component instance 'CROSS2_PLEVEL_IN2SCNDRY_s_level_out_bus_d3' to cell 'FDR' [/home/user/MPS/riscv_kernel/riscv_kernel_kernels/vivado_rtl_kernel/riscv_template_ex/riscv_template_ex.gen/sources_1/bd/gpn_bundle_block/ipshared/ef1e/hdl/lib_cdc_v1_0_rfs.vhd:788]
	Parameter INIT bound to: 1'b0 
INFO: [Synth 8-113] binding component instance 'CROSS2_PLEVEL_IN2SCNDRY_s_level_out_bus_d3' to cell 'FDR' [/home/user/MPS/riscv_kernel/riscv_kernel_kernels/vivado_rtl_kernel/riscv_template_ex/riscv_template_ex.gen/sources_1/bd/gpn_bundle_block/ipshared/ef1e/hdl/lib_cdc_v1_0_rfs.vhd:788]
	Parameter INIT bound to: 1'b0 
INFO: [Synth 8-113] binding component instance 'CROSS2_PLEVEL_IN2SCNDRY_s_level_out_bus_d3' to cell 'FDR' [/home/user/MPS/riscv_kernel/riscv_kernel_kernels/vivado_rtl_kernel/riscv_template_ex/riscv_template_ex.gen/sources_1/bd/gpn_bundle_block/ipshared/ef1e/hdl/lib_cdc_v1_0_rfs.vhd:788]
	Parameter INIT bound to: 1'b0 
INFO: [Synth 8-113] binding component instance 'CROSS2_PLEVEL_IN2SCNDRY_s_level_out_bus_d3' to cell 'FDR' [/home/user/MPS/riscv_kernel/riscv_kernel_kernels/vivado_rtl_kernel/riscv_template_ex/riscv_template_ex.gen/sources_1/bd/gpn_bundle_block/ipshared/ef1e/hdl/lib_cdc_v1_0_rfs.vhd:788]
	Parameter INIT bound to: 1'b0 
INFO: [Synth 8-113] binding component instance 'CROSS2_PLEVEL_IN2SCNDRY_s_level_out_bus_d3' to cell 'FDR' [/home/user/MPS/riscv_kernel/riscv_kernel_kernels/vivado_rtl_kernel/riscv_template_ex/riscv_template_ex.gen/sources_1/bd/gpn_bundle_block/ipshared/ef1e/hdl/lib_cdc_v1_0_rfs.vhd:788]
	Parameter INIT bound to: 1'b0 
INFO: [Synth 8-113] binding component instance 'CROSS2_PLEVEL_IN2SCNDRY_s_level_out_bus_d3' to cell 'FDR' [/home/user/MPS/riscv_kernel/riscv_kernel_kernels/vivado_rtl_kernel/riscv_template_ex/riscv_template_ex.gen/sources_1/bd/gpn_bundle_block/ipshared/ef1e/hdl/lib_cdc_v1_0_rfs.vhd:788]
	Parameter INIT bound to: 1'b0 
INFO: [Synth 8-113] binding component instance 'CROSS2_PLEVEL_IN2SCNDRY_s_level_out_bus_d3' to cell 'FDR' [/home/user/MPS/riscv_kernel/riscv_kernel_kernels/vivado_rtl_kernel/riscv_template_ex/riscv_template_ex.gen/sources_1/bd/gpn_bundle_block/ipshared/ef1e/hdl/lib_cdc_v1_0_rfs.vhd:788]
	Parameter INIT bound to: 1'b0 
INFO: [Synth 8-113] binding component instance 'CROSS2_PLEVEL_IN2SCNDRY_s_level_out_bus_d3' to cell 'FDR' [/home/user/MPS/riscv_kernel/riscv_kernel_kernels/vivado_rtl_kernel/riscv_template_ex/riscv_template_ex.gen/sources_1/bd/gpn_bundle_block/ipshared/ef1e/hdl/lib_cdc_v1_0_rfs.vhd:788]
	Parameter INIT bound to: 1'b0 
INFO: [Synth 8-113] binding component instance 'CROSS2_PLEVEL_IN2SCNDRY_s_level_out_bus_d3' to cell 'FDR' [/home/user/MPS/riscv_kernel/riscv_kernel_kernels/vivado_rtl_kernel/riscv_template_ex/riscv_template_ex.gen/sources_1/bd/gpn_bundle_block/ipshared/ef1e/hdl/lib_cdc_v1_0_rfs.vhd:788]
	Parameter INIT bound to: 1'b0 
INFO: [Synth 8-113] binding component instance 'CROSS2_PLEVEL_IN2SCNDRY_s_level_out_bus_d3' to cell 'FDR' [/home/user/MPS/riscv_kernel/riscv_kernel_kernels/vivado_rtl_kernel/riscv_template_ex/riscv_template_ex.gen/sources_1/bd/gpn_bundle_block/ipshared/ef1e/hdl/lib_cdc_v1_0_rfs.vhd:788]
	Parameter INIT bound to: 1'b0 
INFO: [Synth 8-113] binding component instance 'CROSS2_PLEVEL_IN2SCNDRY_s_level_out_bus_d3' to cell 'FDR' [/home/user/MPS/riscv_kernel/riscv_kernel_kernels/vivado_rtl_kernel/riscv_template_ex/riscv_template_ex.gen/sources_1/bd/gpn_bundle_block/ipshared/ef1e/hdl/lib_cdc_v1_0_rfs.vhd:788]
	Parameter INIT bound to: 1'b0 
INFO: [Synth 8-113] binding component instance 'CROSS2_PLEVEL_IN2SCNDRY_s_level_out_bus_d3' to cell 'FDR' [/home/user/MPS/riscv_kernel/riscv_kernel_kernels/vivado_rtl_kernel/riscv_template_ex/riscv_template_ex.gen/sources_1/bd/gpn_bundle_block/ipshared/ef1e/hdl/lib_cdc_v1_0_rfs.vhd:788]
	Parameter INIT bound to: 1'b0 
INFO: [Synth 8-113] binding component instance 'CROSS2_PLEVEL_IN2SCNDRY_s_level_out_bus_d3' to cell 'FDR' [/home/user/MPS/riscv_kernel/riscv_kernel_kernels/vivado_rtl_kernel/riscv_template_ex/riscv_template_ex.gen/sources_1/bd/gpn_bundle_block/ipshared/ef1e/hdl/lib_cdc_v1_0_rfs.vhd:788]
	Parameter INIT bound to: 1'b0 
INFO: [Synth 8-113] binding component instance 'CROSS2_PLEVEL_IN2SCNDRY_s_level_out_bus_d3' to cell 'FDR' [/home/user/MPS/riscv_kernel/riscv_kernel_kernels/vivado_rtl_kernel/riscv_template_ex/riscv_template_ex.gen/sources_1/bd/gpn_bundle_block/ipshared/ef1e/hdl/lib_cdc_v1_0_rfs.vhd:788]
	Parameter INIT bound to: 1'b0 
INFO: [Synth 8-113] binding component instance 'CROSS2_PLEVEL_IN2SCNDRY_s_level_out_bus_d3' to cell 'FDR' [/home/user/MPS/riscv_kernel/riscv_kernel_kernels/vivado_rtl_kernel/riscv_template_ex/riscv_template_ex.gen/sources_1/bd/gpn_bundle_block/ipshared/ef1e/hdl/lib_cdc_v1_0_rfs.vhd:788]
	Parameter INIT bound to: 1'b0 
INFO: [Synth 8-113] binding component instance 'CROSS2_PLEVEL_IN2SCNDRY_s_level_out_bus_d3' to cell 'FDR' [/home/user/MPS/riscv_kernel/riscv_kernel_kernels/vivado_rtl_kernel/riscv_template_ex/riscv_template_ex.gen/sources_1/bd/gpn_bundle_block/ipshared/ef1e/hdl/lib_cdc_v1_0_rfs.vhd:788]
	Parameter INIT bound to: 1'b0 
INFO: [Synth 8-113] binding component instance 'CROSS2_PLEVEL_IN2SCNDRY_s_level_out_bus_d3' to cell 'FDR' [/home/user/MPS/riscv_kernel/riscv_kernel_kernels/vivado_rtl_kernel/riscv_template_ex/riscv_template_ex.gen/sources_1/bd/gpn_bundle_block/ipshared/ef1e/hdl/lib_cdc_v1_0_rfs.vhd:788]
	Parameter INIT bound to: 1'b0 
INFO: [Synth 8-113] binding component instance 'CROSS2_PLEVEL_IN2SCNDRY_s_level_out_bus_d3' to cell 'FDR' [/home/user/MPS/riscv_kernel/riscv_kernel_kernels/vivado_rtl_kernel/riscv_template_ex/riscv_template_ex.gen/sources_1/bd/gpn_bundle_block/ipshared/ef1e/hdl/lib_cdc_v1_0_rfs.vhd:788]
	Parameter INIT bound to: 1'b0 
INFO: [Synth 8-113] binding component instance 'CROSS2_PLEVEL_IN2SCNDRY_s_level_out_bus_d3' to cell 'FDR' [/home/user/MPS/riscv_kernel/riscv_kernel_kernels/vivado_rtl_kernel/riscv_template_ex/riscv_template_ex.gen/sources_1/bd/gpn_bundle_block/ipshared/ef1e/hdl/lib_cdc_v1_0_rfs.vhd:788]
	Parameter INIT bound to: 1'b0 
INFO: [Synth 8-113] binding component instance 'CROSS2_PLEVEL_IN2SCNDRY_s_level_out_bus_d3' to cell 'FDR' [/home/user/MPS/riscv_kernel/riscv_kernel_kernels/vivado_rtl_kernel/riscv_template_ex/riscv_template_ex.gen/sources_1/bd/gpn_bundle_block/ipshared/ef1e/hdl/lib_cdc_v1_0_rfs.vhd:788]
	Parameter INIT bound to: 1'b0 
INFO: [Synth 8-113] binding component instance 'CROSS2_PLEVEL_IN2SCNDRY_s_level_out_bus_d3' to cell 'FDR' [/home/user/MPS/riscv_kernel/riscv_kernel_kernels/vivado_rtl_kernel/riscv_template_ex/riscv_template_ex.gen/sources_1/bd/gpn_bundle_block/ipshared/ef1e/hdl/lib_cdc_v1_0_rfs.vhd:788]
	Parameter INIT bound to: 1'b0 
INFO: [Synth 8-113] binding component instance 'CROSS2_PLEVEL_IN2SCNDRY_s_level_out_bus_d3' to cell 'FDR' [/home/user/MPS/riscv_kernel/riscv_kernel_kernels/vivado_rtl_kernel/riscv_template_ex/riscv_template_ex.gen/sources_1/bd/gpn_bundle_block/ipshared/ef1e/hdl/lib_cdc_v1_0_rfs.vhd:788]
	Parameter INIT bound to: 1'b0 
INFO: [Synth 8-113] binding component instance 'CROSS2_PLEVEL_IN2SCNDRY_s_level_out_bus_d4' to cell 'FDR' [/home/user/MPS/riscv_kernel/riscv_kernel_kernels/vivado_rtl_kernel/riscv_template_ex/riscv_template_ex.gen/sources_1/bd/gpn_bundle_block/ipshared/ef1e/hdl/lib_cdc_v1_0_rfs.vhd:804]
	Parameter INIT bound to: 1'b0 
INFO: [Synth 8-113] binding component instance 'CROSS2_PLEVEL_IN2SCNDRY_s_level_out_bus_d4' to cell 'FDR' [/home/user/MPS/riscv_kernel/riscv_kernel_kernels/vivado_rtl_kernel/riscv_template_ex/riscv_template_ex.gen/sources_1/bd/gpn_bundle_block/ipshared/ef1e/hdl/lib_cdc_v1_0_rfs.vhd:804]
	Parameter INIT bound to: 1'b0 
INFO: [Synth 8-113] binding component instance 'CROSS2_PLEVEL_IN2SCNDRY_s_level_out_bus_d4' to cell 'FDR' [/home/user/MPS/riscv_kernel/riscv_kernel_kernels/vivado_rtl_kernel/riscv_template_ex/riscv_template_ex.gen/sources_1/bd/gpn_bundle_block/ipshared/ef1e/hdl/lib_cdc_v1_0_rfs.vhd:804]
	Parameter INIT bound to: 1'b0 
INFO: [Synth 8-113] binding component instance 'CROSS2_PLEVEL_IN2SCNDRY_s_level_out_bus_d4' to cell 'FDR' [/home/user/MPS/riscv_kernel/riscv_kernel_kernels/vivado_rtl_kernel/riscv_template_ex/riscv_template_ex.gen/sources_1/bd/gpn_bundle_block/ipshared/ef1e/hdl/lib_cdc_v1_0_rfs.vhd:804]
INFO: [Common 17-14] Message 'Synth 8-113' appears 100 times and further instances of the messages will be disabled. Use the Tcl command set_msg_config to change the current settings.
	Parameter INIT bound to: 1'b0 
	Parameter INIT bound to: 1'b0 
	Parameter INIT bound to: 1'b0 
	Parameter INIT bound to: 1'b0 
	Parameter INIT bound to: 1'b0 
	Parameter INIT bound to: 1'b0 
	Parameter INIT bound to: 1'b0 
	Parameter INIT bound to: 1'b0 
	Parameter INIT bound to: 1'b0 
	Parameter INIT bound to: 1'b0 
	Parameter INIT bound to: 1'b0 
	Parameter INIT bound to: 1'b0 
	Parameter INIT bound to: 1'b0 
	Parameter INIT bound to: 1'b0 
	Parameter INIT bound to: 1'b0 
	Parameter INIT bound to: 1'b0 
	Parameter INIT bound to: 1'b0 
	Parameter INIT bound to: 1'b0 
	Parameter INIT bound to: 1'b0 
	Parameter INIT bound to: 1'b0 
	Parameter INIT bound to: 1'b0 
	Parameter INIT bound to: 1'b0 
	Parameter INIT bound to: 1'b0 
	Parameter INIT bound to: 1'b0 
	Parameter INIT bound to: 1'b0 
	Parameter INIT bound to: 1'b0 
	Parameter INIT bound to: 1'b0 
	Parameter INIT bound to: 1'b0 
	Parameter INIT bound to: 1'b0 
	Parameter INIT bound to: 1'b0 
	Parameter INIT bound to: 1'b0 
	Parameter INIT bound to: 1'b0 
	Parameter INIT bound to: 1'b0 
	Parameter INIT bound to: 1'b0 
	Parameter INIT bound to: 1'b0 
	Parameter INIT bound to: 1'b0 
	Parameter INIT bound to: 1'b0 
	Parameter INIT bound to: 1'b0 
	Parameter INIT bound to: 1'b0 
	Parameter INIT bound to: 1'b0 
	Parameter INIT bound to: 1'b0 
	Parameter INIT bound to: 1'b0 
	Parameter INIT bound to: 1'b0 
	Parameter INIT bound to: 1'b0 
	Parameter INIT bound to: 1'b0 
	Parameter INIT bound to: 1'b0 
	Parameter INIT bound to: 1'b0 
	Parameter INIT bound to: 1'b0 
	Parameter INIT bound to: 1'b0 
	Parameter INIT bound to: 1'b0 
	Parameter INIT bound to: 1'b0 
	Parameter INIT bound to: 1'b0 
	Parameter INIT bound to: 1'b0 
	Parameter INIT bound to: 1'b0 
	Parameter INIT bound to: 1'b0 
	Parameter INIT bound to: 1'b0 
	Parameter INIT bound to: 1'b0 
	Parameter INIT bound to: 1'b0 
	Parameter INIT bound to: 1'b0 
	Parameter INIT bound to: 1'b0 
	Parameter INIT bound to: 1'b0 
	Parameter INIT bound to: 1'b0 
	Parameter INIT bound to: 1'b0 
	Parameter INIT bound to: 1'b0 
	Parameter INIT bound to: 1'b0 
	Parameter INIT bound to: 1'b0 
	Parameter INIT bound to: 1'b0 
	Parameter INIT bound to: 1'b0 
	Parameter INIT bound to: 1'b0 
	Parameter INIT bound to: 1'b0 
	Parameter INIT bound to: 1'b0 
	Parameter INIT bound to: 1'b0 
	Parameter INIT bound to: 1'b0 
	Parameter INIT bound to: 1'b0 
	Parameter INIT bound to: 1'b0 
	Parameter INIT bound to: 1'b0 
	Parameter INIT bound to: 1'b0 
	Parameter INIT bound to: 1'b0 
	Parameter INIT bound to: 1'b0 
	Parameter INIT bound to: 1'b0 
	Parameter INIT bound to: 1'b0 
	Parameter INIT bound to: 1'b0 
	Parameter INIT bound to: 1'b0 
	Parameter INIT bound to: 1'b0 
	Parameter INIT bound to: 1'b0 
	Parameter INIT bound to: 1'b0 
	Parameter INIT bound to: 1'b0 
	Parameter INIT bound to: 1'b0 
	Parameter INIT bound to: 1'b0 
	Parameter INIT bound to: 1'b0 
	Parameter INIT bound to: 1'b0 
	Parameter INIT bound to: 1'b0 
INFO: [Synth 8-256] done synthesizing module 'cdc_sync' (5#1) [/home/user/MPS/riscv_kernel/riscv_kernel_kernels/vivado_rtl_kernel/riscv_template_ex/riscv_template_ex.gen/sources_1/bd/gpn_bundle_block/ipshared/ef1e/hdl/lib_cdc_v1_0_rfs.vhd:106]
INFO: [Synth 8-256] done synthesizing module 'GPIO_Core' (6#1) [/home/user/MPS/riscv_kernel/riscv_kernel_kernels/vivado_rtl_kernel/riscv_template_ex/riscv_template_ex.gen/sources_1/bd/gpn_bundle_block/ipshared/4318/hdl/axi_gpio_v2_0_vh_rfs.vhd:178]
INFO: [Synth 8-256] done synthesizing module 'axi_gpio' (7#1) [/home/user/MPS/riscv_kernel/riscv_kernel_kernels/vivado_rtl_kernel/riscv_template_ex/riscv_template_ex.gen/sources_1/bd/gpn_bundle_block/ipshared/4318/hdl/axi_gpio_v2_0_vh_rfs.vhd:1351]
INFO: [Synth 8-256] done synthesizing module 'gpn_bundle_block_axi_gpio_2_1' (8#1) [/home/user/MPS/riscv_kernel/riscv_kernel_kernels/vivado_rtl_kernel/riscv_template_ex/riscv_template_ex.gen/sources_1/bd/gpn_bundle_block_v001/ip/gpn_bundle_block_axi_gpio_2_1/synth/gpn_bundle_block_axi_gpio_2_1.vhd:84]
---------------------------------------------------------------------------------
Finished RTL Elaboration : Time (s): cpu = 00:00:12 ; elapsed = 00:00:15 . Memory (MB): peak = 3030.133 ; gain = 264.613 ; free physical = 441388 ; free virtual = 477520
---------------------------------------------------------------------------------
---------------------------------------------------------------------------------
Start Handling Custom Attributes
---------------------------------------------------------------------------------
---------------------------------------------------------------------------------
Finished Handling Custom Attributes : Time (s): cpu = 00:00:13 ; elapsed = 00:00:17 . Memory (MB): peak = 3044.977 ; gain = 279.457 ; free physical = 441373 ; free virtual = 477506
---------------------------------------------------------------------------------
---------------------------------------------------------------------------------
Finished RTL Optimization Phase 1 : Time (s): cpu = 00:00:13 ; elapsed = 00:00:17 . Memory (MB): peak = 3044.977 ; gain = 279.457 ; free physical = 441372 ; free virtual = 477505
---------------------------------------------------------------------------------
Netlist sorting complete. Time (s): cpu = 00:00:00.02 ; elapsed = 00:00:00.02 . Memory (MB): peak = 3056.883 ; gain = 0.000 ; free physical = 441501 ; free virtual = 477635
INFO: [Netlist 29-17] Analyzing 192 Unisim elements for replacement
INFO: [Netlist 29-28] Unisim Transformation completed in 0 CPU seconds
INFO: [Project 1-570] Preparing netlist for logic optimization

Processing XDC Constraints
Initializing timing engine
Parsing XDC File [/home/user/MPS/riscv_kernel/riscv_kernel_kernels/vivado_rtl_kernel/riscv_template_ex/riscv_template_ex.gen/sources_1/bd/gpn_bundle_block_v001/ip/gpn_bundle_block_axi_gpio_2_1/gpn_bundle_block_axi_gpio_2_1_ooc.xdc] for cell 'U0'
create_clock: Time (s): cpu = 00:00:08 ; elapsed = 00:00:09 . Memory (MB): peak = 3233.570 ; gain = 0.000 ; free physical = 441162 ; free virtual = 477293
Finished Parsing XDC File [/home/user/MPS/riscv_kernel/riscv_kernel_kernels/vivado_rtl_kernel/riscv_template_ex/riscv_template_ex.gen/sources_1/bd/gpn_bundle_block_v001/ip/gpn_bundle_block_axi_gpio_2_1/gpn_bundle_block_axi_gpio_2_1_ooc.xdc] for cell 'U0'
Parsing XDC File [/home/user/MPS/riscv_kernel/riscv_kernel_kernels/vivado_rtl_kernel/riscv_template_ex/riscv_template_ex.gen/sources_1/bd/gpn_bundle_block_v001/ip/gpn_bundle_block_axi_gpio_2_1/gpn_bundle_block_axi_gpio_2_1_board.xdc] for cell 'U0'
Finished Parsing XDC File [/home/user/MPS/riscv_kernel/riscv_kernel_kernels/vivado_rtl_kernel/riscv_template_ex/riscv_template_ex.gen/sources_1/bd/gpn_bundle_block_v001/ip/gpn_bundle_block_axi_gpio_2_1/gpn_bundle_block_axi_gpio_2_1_board.xdc] for cell 'U0'
Parsing XDC File [/home/user/MPS/riscv_kernel/riscv_kernel_kernels/vivado_rtl_kernel/riscv_template_ex/riscv_template_ex.gen/sources_1/bd/gpn_bundle_block_v001/ip/gpn_bundle_block_axi_gpio_2_1/gpn_bundle_block_axi_gpio_2_1.xdc] for cell 'U0'
Finished Parsing XDC File [/home/user/MPS/riscv_kernel/riscv_kernel_kernels/vivado_rtl_kernel/riscv_template_ex/riscv_template_ex.gen/sources_1/bd/gpn_bundle_block_v001/ip/gpn_bundle_block_axi_gpio_2_1/gpn_bundle_block_axi_gpio_2_1.xdc] for cell 'U0'
Parsing XDC File [/home/user/MPS/riscv_kernel/riscv_kernel_kernels/vivado_rtl_kernel/riscv_template_ex/riscv_template_ex.runs/gpn_bundle_block_axi_gpio_2_1_synth_1/dont_touch.xdc]
Finished Parsing XDC File [/home/user/MPS/riscv_kernel/riscv_kernel_kernels/vivado_rtl_kernel/riscv_template_ex/riscv_template_ex.runs/gpn_bundle_block_axi_gpio_2_1_synth_1/dont_touch.xdc]
Completed Processing XDC Constraints

Netlist sorting complete. Time (s): cpu = 00:00:00 ; elapsed = 00:00:00 . Memory (MB): peak = 3233.570 ; gain = 0.000 ; free physical = 441167 ; free virtual = 477296
INFO: [Project 1-111] Unisim Transformation Summary:
  A total of 192 instances were transformed.
  FDR => FDRE: 192 instances

Constraint Validation Runtime : Time (s): cpu = 00:00:00.05 ; elapsed = 00:00:00.06 . Memory (MB): peak = 3233.570 ; gain = 0.000 ; free physical = 441175 ; free virtual = 477304
---------------------------------------------------------------------------------
Finished Constraint Validation : Time (s): cpu = 00:00:36 ; elapsed = 00:00:45 . Memory (MB): peak = 3233.570 ; gain = 468.051 ; free physical = 441353 ; free virtual = 477496
---------------------------------------------------------------------------------
---------------------------------------------------------------------------------
Start Loading Part and Timing Information
---------------------------------------------------------------------------------
Loading part: xcu200-fsgd2104-2-e
INFO: [Synth 8-6742] Reading net delay rules and data
---------------------------------------------------------------------------------
Finished Loading Part and Timing Information : Time (s): cpu = 00:00:36 ; elapsed = 00:00:45 . Memory (MB): peak = 3233.570 ; gain = 468.051 ; free physical = 441353 ; free virtual = 477496
---------------------------------------------------------------------------------
---------------------------------------------------------------------------------
Start Applying 'set_property' XDC Constraints
---------------------------------------------------------------------------------
Applied set_property KEEP_HIERARCHY = SOFT for U0. (constraint file  /home/user/MPS/riscv_kernel/riscv_kernel_kernels/vivado_rtl_kernel/riscv_template_ex/riscv_template_ex.runs/gpn_bundle_block_axi_gpio_2_1_synth_1/dont_touch.xdc, line 9).
---------------------------------------------------------------------------------
Finished applying 'set_property' XDC Constraints : Time (s): cpu = 00:00:36 ; elapsed = 00:00:45 . Memory (MB): peak = 3233.570 ; gain = 468.051 ; free physical = 441352 ; free virtual = 477495
---------------------------------------------------------------------------------
INFO: [Synth 8-802] inferred FSM for state register 'state_reg' in module 'slave_attachment'
---------------------------------------------------------------------------------------------------
                   State |                     New Encoding |                Previous Encoding 
---------------------------------------------------------------------------------------------------
                 iSTATE2 |                             0001 |                               00
                  iSTATE |                             0010 |                               01
                 iSTATE0 |                             0100 |                               10
                 iSTATE1 |                             1000 |                               11
---------------------------------------------------------------------------------------------------
INFO: [Synth 8-3354] encoded FSM with state register 'state_reg' using encoding 'one-hot' in module 'slave_attachment'
---------------------------------------------------------------------------------
Finished RTL Optimization Phase 2 : Time (s): cpu = 00:00:37 ; elapsed = 00:00:47 . Memory (MB): peak = 3233.570 ; gain = 468.051 ; free physical = 441407 ; free virtual = 477561
---------------------------------------------------------------------------------
---------------------------------------------------------------------------------
Start RTL Component Statistics 
---------------------------------------------------------------------------------
Detailed RTL Component Info : 
+---Adders : 
	   2 Input    4 Bit       Adders := 1     
+---Registers : 
	               32 Bit    Registers := 5     
	                9 Bit    Registers := 1     
	                4 Bit    Registers := 1     
	                2 Bit    Registers := 3     
	                1 Bit    Registers := 50    
+---Muxes : 
	   2 Input   32 Bit        Muxes := 2     
	   5 Input   32 Bit        Muxes := 1     
	   2 Input    9 Bit        Muxes := 1     
	   4 Input    4 Bit        Muxes := 1     
	   2 Input    4 Bit        Muxes := 5     
	   7 Input    2 Bit        Muxes := 1     
	   2 Input    2 Bit        Muxes := 2     
	   2 Input    1 Bit        Muxes := 11    
	   4 Input    1 Bit        Muxes := 3     
---------------------------------------------------------------------------------
Finished RTL Component Statistics 
---------------------------------------------------------------------------------
---------------------------------------------------------------------------------
Start Part Resource Summary
---------------------------------------------------------------------------------
Part Resources:
DSPs: 6840 (col length:120)
BRAMs: 4320 (col length: RAMB18 360 RAMB36 180)
---------------------------------------------------------------------------------
Finished Part Resource Summary
---------------------------------------------------------------------------------
---------------------------------------------------------------------------------
Start Cross Boundary and Area Optimization
---------------------------------------------------------------------------------
---------------------------------------------------------------------------------
Finished Cross Boundary and Area Optimization : Time (s): cpu = 00:00:40 ; elapsed = 00:00:49 . Memory (MB): peak = 3233.570 ; gain = 468.051 ; free physical = 441278 ; free virtual = 477444
---------------------------------------------------------------------------------
---------------------------------------------------------------------------------
Start Applying XDC Timing Constraints
---------------------------------------------------------------------------------
---------------------------------------------------------------------------------
Finished Applying XDC Timing Constraints : Time (s): cpu = 00:01:20 ; elapsed = 00:02:00 . Memory (MB): peak = 3462.742 ; gain = 697.223 ; free physical = 438212 ; free virtual = 474386
---------------------------------------------------------------------------------
---------------------------------------------------------------------------------
Start Timing Optimization
---------------------------------------------------------------------------------
---------------------------------------------------------------------------------
Finished Timing Optimization : Time (s): cpu = 00:01:20 ; elapsed = 00:02:01 . Memory (MB): peak = 3482.773 ; gain = 717.254 ; free physical = 438207 ; free virtual = 474381
---------------------------------------------------------------------------------
---------------------------------------------------------------------------------
Start Technology Mapping
---------------------------------------------------------------------------------
---------------------------------------------------------------------------------
Finished Technology Mapping : Time (s): cpu = 00:01:21 ; elapsed = 00:02:01 . Memory (MB): peak = 3483.781 ; gain = 718.262 ; free physical = 438229 ; free virtual = 474404
---------------------------------------------------------------------------------
---------------------------------------------------------------------------------
Start IO Insertion
---------------------------------------------------------------------------------
---------------------------------------------------------------------------------
Start Flattening Before IO Insertion
---------------------------------------------------------------------------------
---------------------------------------------------------------------------------
Finished Flattening Before IO Insertion
---------------------------------------------------------------------------------
---------------------------------------------------------------------------------
Start Final Netlist Cleanup
---------------------------------------------------------------------------------
---------------------------------------------------------------------------------
Finished Final Netlist Cleanup
---------------------------------------------------------------------------------
---------------------------------------------------------------------------------
Finished IO Insertion : Time (s): cpu = 00:01:27 ; elapsed = 00:02:07 . Memory (MB): peak = 3489.719 ; gain = 724.199 ; free physical = 438565 ; free virtual = 474739
---------------------------------------------------------------------------------
---------------------------------------------------------------------------------
Start Renaming Generated Instances
---------------------------------------------------------------------------------
---------------------------------------------------------------------------------
Finished Renaming Generated Instances : Time (s): cpu = 00:01:27 ; elapsed = 00:02:07 . Memory (MB): peak = 3489.719 ; gain = 724.199 ; free physical = 438564 ; free virtual = 474739
---------------------------------------------------------------------------------
---------------------------------------------------------------------------------
Start Rebuilding User Hierarchy
---------------------------------------------------------------------------------
---------------------------------------------------------------------------------
Finished Rebuilding User Hierarchy : Time (s): cpu = 00:01:27 ; elapsed = 00:02:08 . Memory (MB): peak = 3489.719 ; gain = 724.199 ; free physical = 438553 ; free virtual = 474727
---------------------------------------------------------------------------------
---------------------------------------------------------------------------------
Start Renaming Generated Ports
---------------------------------------------------------------------------------
---------------------------------------------------------------------------------
Finished Renaming Generated Ports : Time (s): cpu = 00:01:27 ; elapsed = 00:02:08 . Memory (MB): peak = 3489.719 ; gain = 724.199 ; free physical = 438552 ; free virtual = 474727
---------------------------------------------------------------------------------
---------------------------------------------------------------------------------
Start Handling Custom Attributes
---------------------------------------------------------------------------------
---------------------------------------------------------------------------------
Finished Handling Custom Attributes : Time (s): cpu = 00:01:27 ; elapsed = 00:02:08 . Memory (MB): peak = 3489.719 ; gain = 724.199 ; free physical = 438551 ; free virtual = 474726
---------------------------------------------------------------------------------
---------------------------------------------------------------------------------
Start Renaming Generated Nets
---------------------------------------------------------------------------------
---------------------------------------------------------------------------------
Finished Renaming Generated Nets : Time (s): cpu = 00:01:27 ; elapsed = 00:02:08 . Memory (MB): peak = 3489.719 ; gain = 724.199 ; free physical = 438550 ; free virtual = 474724
---------------------------------------------------------------------------------
---------------------------------------------------------------------------------
Start Writing Synthesis Report
---------------------------------------------------------------------------------

Report BlackBoxes: 
+-+--------------+----------+
| |BlackBox name |Instances |
+-+--------------+----------+
+-+--------------+----------+

Report Cell Usage: 
+------+-----+------+
|      |Cell |Count |
+------+-----+------+
|1     |LUT1 |     2|
|2     |LUT2 |    10|
|3     |LUT3 |     7|
|4     |LUT4 |     5|
|5     |LUT5 |    39|
|6     |LUT6 |    39|
|7     |FDR  |   128|
|8     |FDRE |   157|
|9     |FDSE |    33|
+------+-----+------+
---------------------------------------------------------------------------------
Finished Writing Synthesis Report : Time (s): cpu = 00:01:27 ; elapsed = 00:02:08 . Memory (MB): peak = 3489.719 ; gain = 724.199 ; free physical = 438548 ; free virtual = 474723
---------------------------------------------------------------------------------
Synthesis finished with 0 errors, 0 critical warnings and 0 warnings.
Synthesis Optimization Runtime : Time (s): cpu = 00:01:12 ; elapsed = 00:01:49 . Memory (MB): peak = 3489.719 ; gain = 535.605 ; free physical = 438565 ; free virtual = 474740
Synthesis Optimization Complete : Time (s): cpu = 00:01:27 ; elapsed = 00:02:08 . Memory (MB): peak = 3489.727 ; gain = 724.199 ; free physical = 438565 ; free virtual = 474739
INFO: [Project 1-571] Translating synthesized netlist
Netlist sorting complete. Time (s): cpu = 00:00:11 ; elapsed = 00:00:00.01 . Memory (MB): peak = 3489.727 ; gain = 0.000 ; free physical = 438592 ; free virtual = 474766
INFO: [Netlist 29-17] Analyzing 128 Unisim elements for replacement
INFO: [Netlist 29-28] Unisim Transformation completed in 0 CPU seconds
INFO: [Project 1-570] Preparing netlist for logic optimization
INFO: [Opt 31-138] Pushed 0 inverter(s) to 0 load pin(s).
Netlist sorting complete. Time (s): cpu = 00:00:00 ; elapsed = 00:00:00 . Memory (MB): peak = 3590.367 ; gain = 0.000 ; free physical = 440757 ; free virtual = 476926
INFO: [Project 1-111] Unisim Transformation Summary:
  A total of 128 instances were transformed.
  FDR => FDRE: 128 instances

INFO: [Common 17-83] Releasing license: Synthesis
148 Infos, 4 Warnings, 0 Critical Warnings and 0 Errors encountered.
synth_design completed successfully
synth_design: Time (s): cpu = 00:02:13 ; elapsed = 00:03:01 . Memory (MB): peak = 3590.367 ; gain = 1189.734 ; free physical = 440979 ; free virtual = 477147
INFO: [Common 17-1381] The checkpoint '/home/user/MPS/riscv_kernel/riscv_kernel_kernels/vivado_rtl_kernel/riscv_template_ex/riscv_template_ex.runs/gpn_bundle_block_axi_gpio_2_1_synth_1/gpn_bundle_block_axi_gpio_2_1.dcp' has been generated.
WARNING: [Common 17-576] 'use_project_ipc' is deprecated. This option is deprecated and no longer used.
INFO: [Coretcl 2-1648] Added synthesis output to IP cache for IP gpn_bundle_block_axi_gpio_2_1, cache-ID = 9485987ed288f66a
INFO: [Coretcl 2-1174] Renamed 8 cell refs.
INFO: [Common 17-1381] The checkpoint '/home/user/MPS/riscv_kernel/riscv_kernel_kernels/vivado_rtl_kernel/riscv_template_ex/riscv_template_ex.runs/gpn_bundle_block_axi_gpio_2_1_synth_1/gpn_bundle_block_axi_gpio_2_1.dcp' has been generated.
INFO: [runtcl-4] Executing : report_utilization -file gpn_bundle_block_axi_gpio_2_1_utilization_synth.rpt -pb gpn_bundle_block_axi_gpio_2_1_utilization_synth.pb
INFO: [Common 17-206] Exiting Vivado at Mon Aug 29 21:30:47 2022...
